#line 1 "..\\main_device_ack_payload.c"











 


















 


#line 1 "..\\..\\..\\..\\..\\Include\\gzll\\nrf_gzll.h"











 





 




#line 1 "e:\\Keil\\ARM\\ARMCC\\bin\\..\\include\\stdbool.h"
 






 





#line 25 "e:\\Keil\\ARM\\ARMCC\\bin\\..\\include\\stdbool.h"



#line 24 "..\\..\\..\\..\\..\\Include\\gzll\\nrf_gzll.h"
#line 1 "..\\..\\..\\..\\..\\Include\\nrf.h"










 







 
#line 1 "..\\..\\..\\..\\..\\Include\\nrf51.h"

 






















 





 



 









 

typedef enum {
 
  Reset_IRQn                    = -15,               
  NonMaskableInt_IRQn           = -14,               
  HardFault_IRQn                = -13,               
  SVCall_IRQn                   =  -5,               
  DebugMonitor_IRQn             =  -4,               
  PendSV_IRQn                   =  -2,               
  SysTick_IRQn                  =  -1,               
 
  POWER_CLOCK_IRQn              =   0,               
  RADIO_IRQn                    =   1,               
  UART0_IRQn                    =   2,               
  SPI0_TWI0_IRQn                =   3,               
  SPI1_TWI1_IRQn                =   4,               
  GPIOTE_IRQn                   =   6,               
  ADC_IRQn                      =   7,               
  TIMER0_IRQn                   =   8,               
  TIMER1_IRQn                   =   9,               
  TIMER2_IRQn                   =  10,               
  RTC0_IRQn                     =  11,               
  TEMP_IRQn                     =  12,               
  RNG_IRQn                      =  13,               
  ECB_IRQn                      =  14,               
  CCM_AAR_IRQn                  =  15,               
  WDT_IRQn                      =  16,               
  RTC1_IRQn                     =  17,               
  QDEC_IRQn                     =  18,               
  LPCOMP_COMP_IRQn              =  19,               
  SWI0_IRQn                     =  20,               
  SWI1_IRQn                     =  21,               
  SWI2_IRQn                     =  22,               
  SWI3_IRQn                     =  23,               
  SWI4_IRQn                     =  24,               
  SWI5_IRQn                     =  25                
} IRQn_Type;




 


 
 
 

 




   

#line 1 "e:\\Keil\\ARM\\PACK\\ARM\\CMSIS\\3.20.4\\CMSIS\\Include\\core_cm0.h"
 







 

























 
























 




 


 

 













#line 100 "e:\\Keil\\ARM\\PACK\\ARM\\CMSIS\\3.20.4\\CMSIS\\Include\\core_cm0.h"


 







#line 125 "e:\\Keil\\ARM\\PACK\\ARM\\CMSIS\\3.20.4\\CMSIS\\Include\\core_cm0.h"

#line 1 "e:\\Keil\\ARM\\ARMCC\\bin\\..\\include\\stdint.h"
 
 





 










#line 26 "e:\\Keil\\ARM\\ARMCC\\bin\\..\\include\\stdint.h"







 

     

     
typedef   signed          char int8_t;
typedef   signed short     int int16_t;
typedef   signed           int int32_t;
typedef   signed       __int64 int64_t;

     
typedef unsigned          char uint8_t;
typedef unsigned short     int uint16_t;
typedef unsigned           int uint32_t;
typedef unsigned       __int64 uint64_t;

     

     
     
typedef   signed          char int_least8_t;
typedef   signed short     int int_least16_t;
typedef   signed           int int_least32_t;
typedef   signed       __int64 int_least64_t;

     
typedef unsigned          char uint_least8_t;
typedef unsigned short     int uint_least16_t;
typedef unsigned           int uint_least32_t;
typedef unsigned       __int64 uint_least64_t;

     

     
typedef   signed           int int_fast8_t;
typedef   signed           int int_fast16_t;
typedef   signed           int int_fast32_t;
typedef   signed       __int64 int_fast64_t;

     
typedef unsigned           int uint_fast8_t;
typedef unsigned           int uint_fast16_t;
typedef unsigned           int uint_fast32_t;
typedef unsigned       __int64 uint_fast64_t;

     
typedef   signed           int intptr_t;
typedef unsigned           int uintptr_t;

     
typedef   signed       __int64 intmax_t;
typedef unsigned       __int64 uintmax_t;




     

     





     





     





     

     





     





     





     

     





     





     





     

     


     


     


     

     


     


     


     

     



     



     


     
    
 



#line 197 "e:\\Keil\\ARM\\ARMCC\\bin\\..\\include\\stdint.h"

     







     










     











#line 261 "e:\\Keil\\ARM\\ARMCC\\bin\\..\\include\\stdint.h"



 



#line 127 "e:\\Keil\\ARM\\PACK\\ARM\\CMSIS\\3.20.4\\CMSIS\\Include\\core_cm0.h"
#line 1 "e:\\Keil\\ARM\\PACK\\ARM\\CMSIS\\3.20.4\\CMSIS\\Include\\core_cmInstr.h"
 







 

























 






 



 


 









 







 







 






 








 







 







 









 









 

__attribute__((section(".rev16_text"))) static __inline __asm uint32_t __REV16(uint32_t value)
{
  rev16 r0, r0
  bx lr
}








 

__attribute__((section(".revsh_text"))) static __inline __asm int32_t __REVSH(int32_t value)
{
  revsh r0, r0
  bx lr
}










 










 



#line 292 "e:\\Keil\\ARM\\PACK\\ARM\\CMSIS\\3.20.4\\CMSIS\\Include\\core_cmInstr.h"



#line 685 "e:\\Keil\\ARM\\PACK\\ARM\\CMSIS\\3.20.4\\CMSIS\\Include\\core_cmInstr.h"

   

#line 128 "e:\\Keil\\ARM\\PACK\\ARM\\CMSIS\\3.20.4\\CMSIS\\Include\\core_cm0.h"
#line 1 "e:\\Keil\\ARM\\PACK\\ARM\\CMSIS\\3.20.4\\CMSIS\\Include\\core_cmFunc.h"
 







 

























 






 



 


 





 
 






 
static __inline uint32_t __get_CONTROL(void)
{
  register uint32_t __regControl         __asm("control");
  return(__regControl);
}







 
static __inline void __set_CONTROL(uint32_t control)
{
  register uint32_t __regControl         __asm("control");
  __regControl = control;
}







 
static __inline uint32_t __get_IPSR(void)
{
  register uint32_t __regIPSR          __asm("ipsr");
  return(__regIPSR);
}







 
static __inline uint32_t __get_APSR(void)
{
  register uint32_t __regAPSR          __asm("apsr");
  return(__regAPSR);
}







 
static __inline uint32_t __get_xPSR(void)
{
  register uint32_t __regXPSR          __asm("xpsr");
  return(__regXPSR);
}







 
static __inline uint32_t __get_PSP(void)
{
  register uint32_t __regProcessStackPointer  __asm("psp");
  return(__regProcessStackPointer);
}







 
static __inline void __set_PSP(uint32_t topOfProcStack)
{
  register uint32_t __regProcessStackPointer  __asm("psp");
  __regProcessStackPointer = topOfProcStack;
}







 
static __inline uint32_t __get_MSP(void)
{
  register uint32_t __regMainStackPointer     __asm("msp");
  return(__regMainStackPointer);
}







 
static __inline void __set_MSP(uint32_t topOfMainStack)
{
  register uint32_t __regMainStackPointer     __asm("msp");
  __regMainStackPointer = topOfMainStack;
}







 
static __inline uint32_t __get_PRIMASK(void)
{
  register uint32_t __regPriMask         __asm("primask");
  return(__regPriMask);
}







 
static __inline void __set_PRIMASK(uint32_t priMask)
{
  register uint32_t __regPriMask         __asm("primask");
  __regPriMask = (priMask);
}


#line 271 "e:\\Keil\\ARM\\PACK\\ARM\\CMSIS\\3.20.4\\CMSIS\\Include\\core_cmFunc.h"


#line 307 "e:\\Keil\\ARM\\PACK\\ARM\\CMSIS\\3.20.4\\CMSIS\\Include\\core_cmFunc.h"


#line 632 "e:\\Keil\\ARM\\PACK\\ARM\\CMSIS\\3.20.4\\CMSIS\\Include\\core_cmFunc.h"

 


#line 129 "e:\\Keil\\ARM\\PACK\\ARM\\CMSIS\\3.20.4\\CMSIS\\Include\\core_cm0.h"








 
#line 154 "e:\\Keil\\ARM\\PACK\\ARM\\CMSIS\\3.20.4\\CMSIS\\Include\\core_cm0.h"

 






 
#line 170 "e:\\Keil\\ARM\\PACK\\ARM\\CMSIS\\3.20.4\\CMSIS\\Include\\core_cm0.h"

 










 


 





 


 
typedef union
{
  struct
  {

    uint32_t _reserved0:27;               





    uint32_t Q:1;                         
    uint32_t V:1;                         
    uint32_t C:1;                         
    uint32_t Z:1;                         
    uint32_t N:1;                         
  } b;                                    
  uint32_t w;                             
} APSR_Type;



 
typedef union
{
  struct
  {
    uint32_t ISR:9;                       
    uint32_t _reserved0:23;               
  } b;                                    
  uint32_t w;                             
} IPSR_Type;



 
typedef union
{
  struct
  {
    uint32_t ISR:9;                       

    uint32_t _reserved0:15;               





    uint32_t T:1;                         
    uint32_t IT:2;                        
    uint32_t Q:1;                         
    uint32_t V:1;                         
    uint32_t C:1;                         
    uint32_t Z:1;                         
    uint32_t N:1;                         
  } b;                                    
  uint32_t w;                             
} xPSR_Type;



 
typedef union
{
  struct
  {
    uint32_t nPRIV:1;                     
    uint32_t SPSEL:1;                     
    uint32_t FPCA:1;                      
    uint32_t _reserved0:29;               
  } b;                                    
  uint32_t w;                             
} CONTROL_Type;

 






 


 
typedef struct
{
  volatile uint32_t ISER[1];                  
       uint32_t RESERVED0[31];
  volatile uint32_t ICER[1];                  
       uint32_t RSERVED1[31];
  volatile uint32_t ISPR[1];                  
       uint32_t RESERVED2[31];
  volatile uint32_t ICPR[1];                  
       uint32_t RESERVED3[31];
       uint32_t RESERVED4[64];
  volatile uint32_t IP[8];                    
}  NVIC_Type;

 






 


 
typedef struct
{
  volatile const  uint32_t CPUID;                    
  volatile uint32_t ICSR;                     
       uint32_t RESERVED0;
  volatile uint32_t AIRCR;                    
  volatile uint32_t SCR;                      
  volatile uint32_t CCR;                      
       uint32_t RESERVED1;
  volatile uint32_t SHP[2];                   
  volatile uint32_t SHCSR;                    
} SCB_Type;

 















 



























 















 









 






 



 






 


 
typedef struct
{
  volatile uint32_t CTRL;                     
  volatile uint32_t LOAD;                     
  volatile uint32_t VAL;                      
  volatile const  uint32_t CALIB;                    
} SysTick_Type;

 












 



 



 









 








 
 






 

 










 









 

 



 




 

 
 










 
static __inline void NVIC_EnableIRQ(IRQn_Type IRQn)
{
  ((NVIC_Type *) ((0xE000E000UL) + 0x0100UL) )->ISER[0] = (1 << ((uint32_t)(IRQn) & 0x1F));
}







 
static __inline void NVIC_DisableIRQ(IRQn_Type IRQn)
{
  ((NVIC_Type *) ((0xE000E000UL) + 0x0100UL) )->ICER[0] = (1 << ((uint32_t)(IRQn) & 0x1F));
}











 
static __inline uint32_t NVIC_GetPendingIRQ(IRQn_Type IRQn)
{
  return((uint32_t) ((((NVIC_Type *) ((0xE000E000UL) + 0x0100UL) )->ISPR[0] & (1 << ((uint32_t)(IRQn) & 0x1F)))?1:0));
}







 
static __inline void NVIC_SetPendingIRQ(IRQn_Type IRQn)
{
  ((NVIC_Type *) ((0xE000E000UL) + 0x0100UL) )->ISPR[0] = (1 << ((uint32_t)(IRQn) & 0x1F));
}







 
static __inline void NVIC_ClearPendingIRQ(IRQn_Type IRQn)
{
  ((NVIC_Type *) ((0xE000E000UL) + 0x0100UL) )->ICPR[0] = (1 << ((uint32_t)(IRQn) & 0x1F));  
}










 
static __inline void NVIC_SetPriority(IRQn_Type IRQn, uint32_t priority)
{
  if(IRQn < 0) {
    ((SCB_Type *) ((0xE000E000UL) + 0x0D00UL) )->SHP[( ((((uint32_t)(IRQn) & 0x0F)-8) >> 2) )] = (((SCB_Type *) ((0xE000E000UL) + 0x0D00UL) )->SHP[( ((((uint32_t)(IRQn) & 0x0F)-8) >> 2) )] & ~(0xFF << ( (((uint32_t)(IRQn) ) & 0x03) * 8 ))) |
        (((priority << (8 - 2)) & 0xFF) << ( (((uint32_t)(IRQn) ) & 0x03) * 8 )); }
  else {
    ((NVIC_Type *) ((0xE000E000UL) + 0x0100UL) )->IP[( ((uint32_t)(IRQn) >> 2) )] = (((NVIC_Type *) ((0xE000E000UL) + 0x0100UL) )->IP[( ((uint32_t)(IRQn) >> 2) )] & ~(0xFF << ( (((uint32_t)(IRQn) ) & 0x03) * 8 ))) |
        (((priority << (8 - 2)) & 0xFF) << ( (((uint32_t)(IRQn) ) & 0x03) * 8 )); }
}












 
static __inline uint32_t NVIC_GetPriority(IRQn_Type IRQn)
{

  if(IRQn < 0) {
    return((uint32_t)(((((SCB_Type *) ((0xE000E000UL) + 0x0D00UL) )->SHP[( ((((uint32_t)(IRQn) & 0x0F)-8) >> 2) )] >> ( (((uint32_t)(IRQn) ) & 0x03) * 8 ) ) & 0xFF) >> (8 - 2)));  }  
  else {
    return((uint32_t)(((((NVIC_Type *) ((0xE000E000UL) + 0x0100UL) )->IP[ ( ((uint32_t)(IRQn) >> 2) )] >> ( (((uint32_t)(IRQn) ) & 0x03) * 8 ) ) & 0xFF) >> (8 - 2)));  }  
}





 
static __inline void NVIC_SystemReset(void)
{
  __dsb(0xF);                                                     
 
  ((SCB_Type *) ((0xE000E000UL) + 0x0D00UL) )->AIRCR  = ((0x5FA << 16)      |
                 (1UL << 2));
  __dsb(0xF);                                                      
  while(1);                                                     
}

 



 




 

















 
static __inline uint32_t SysTick_Config(uint32_t ticks)
{
  if ((ticks - 1) > (0xFFFFFFUL << 0))  return (1);       

  ((SysTick_Type *) ((0xE000E000UL) + 0x0010UL) )->LOAD  = ticks - 1;                                   
  NVIC_SetPriority (SysTick_IRQn, (1<<2) - 1);   
  ((SysTick_Type *) ((0xE000E000UL) + 0x0010UL) )->VAL   = 0;                                           
  ((SysTick_Type *) ((0xE000E000UL) + 0x0010UL) )->CTRL  = (1UL << 2) |
                   (1UL << 1)   |
                   (1UL << 0);                     
  return (0);                                                   
}



 








#line 102 "..\\..\\..\\..\\..\\Include\\nrf51.h"
#line 1 "..\\..\\..\\..\\..\\Include\\system_nrf51.h"










 









#line 22 "..\\..\\..\\..\\..\\Include\\system_nrf51.h"


extern uint32_t SystemCoreClock;     









 
extern void SystemInit (void);









 
extern void SystemCoreClockUpdate (void);





#line 103 "..\\..\\..\\..\\..\\Include\\nrf51.h"


 
 
 




 


 

  #pragma push
  #pragma anon_unions
#line 130 "..\\..\\..\\..\\..\\Include\\nrf51.h"


typedef struct {
  volatile uint32_t  CPU0;                               
  volatile uint32_t  SPIS1;                              
  volatile uint32_t  RADIO;                              
  volatile uint32_t  ECB;                                
  volatile uint32_t  CCM;                                
  volatile uint32_t  AAR;                                
} AMLI_RAMPRI_Type;

typedef struct {
  volatile  uint32_t  EN;                                 
  volatile  uint32_t  DIS;                                
} PPI_TASKS_CHG_Type;

typedef struct {
  volatile uint32_t  EEP;                                
  volatile uint32_t  TEP;                                
} PPI_CH_Type;


 
 
 




 

typedef struct {                                     
  volatile const  uint32_t  RESERVED0[30];
  volatile  uint32_t  TASKS_CONSTLAT;                     
  volatile  uint32_t  TASKS_LOWPWR;                       
  volatile const  uint32_t  RESERVED1[34];
  volatile uint32_t  EVENTS_POFWARN;                     
  volatile const  uint32_t  RESERVED2[126];
  volatile uint32_t  INTENSET;                           
  volatile uint32_t  INTENCLR;                           
  volatile const  uint32_t  RESERVED3[61];
  volatile uint32_t  RESETREAS;                          
  volatile const  uint32_t  RESERVED4[9];
  volatile const  uint32_t  RAMSTATUS;                          
  volatile const  uint32_t  RESERVED5[53];
  volatile  uint32_t  SYSTEMOFF;                          
  volatile const  uint32_t  RESERVED6[3];
  volatile uint32_t  POFCON;                             
  volatile const  uint32_t  RESERVED7[2];
  volatile uint32_t  GPREGRET;                          
 
  volatile const  uint32_t  RESERVED8;
  volatile uint32_t  RAMON;                              
  volatile const  uint32_t  RESERVED9[7];
  volatile uint32_t  RESET;                             
 
  volatile const  uint32_t  RESERVED10[12];
  volatile uint32_t  DCDCEN;                             
  volatile const  uint32_t  RESERVED11[291];
  volatile uint32_t  DCDCFORCE;                          
} NRF_POWER_Type;


 
 
 




 

typedef struct {                                     
  volatile  uint32_t  TASKS_HFCLKSTART;                   
  volatile  uint32_t  TASKS_HFCLKSTOP;                    
  volatile  uint32_t  TASKS_LFCLKSTART;                   
  volatile  uint32_t  TASKS_LFCLKSTOP;                    
  volatile  uint32_t  TASKS_CAL;                          
  volatile  uint32_t  TASKS_CTSTART;                      
  volatile  uint32_t  TASKS_CTSTOP;                       
  volatile const  uint32_t  RESERVED0[57];
  volatile uint32_t  EVENTS_HFCLKSTARTED;                
  volatile uint32_t  EVENTS_LFCLKSTARTED;                
  volatile const  uint32_t  RESERVED1;
  volatile uint32_t  EVENTS_DONE;                        
  volatile uint32_t  EVENTS_CTTO;                        
  volatile const  uint32_t  RESERVED2[124];
  volatile uint32_t  INTENSET;                           
  volatile uint32_t  INTENCLR;                           
  volatile const  uint32_t  RESERVED3[63];
  volatile const  uint32_t  HFCLKRUN;                           
  volatile const  uint32_t  HFCLKSTAT;                          
  volatile const  uint32_t  RESERVED4;
  volatile const  uint32_t  LFCLKRUN;                           
  volatile const  uint32_t  LFCLKSTAT;                          
  volatile uint32_t  LFCLKSRCCOPY;                      
 
  volatile const  uint32_t  RESERVED5[62];
  volatile uint32_t  LFCLKSRC;                           
  volatile const  uint32_t  RESERVED6[7];
  volatile uint32_t  CTIV;                               
  volatile const  uint32_t  RESERVED7[5];
  volatile uint32_t  XTALFREQ;                           
} NRF_CLOCK_Type;


 
 
 




 

typedef struct {                                     
  volatile const  uint32_t  RESERVED0[330];
  volatile uint32_t  PERR0;                              
  volatile uint32_t  RLENR0;                             
  volatile const  uint32_t  RESERVED1[52];
  volatile uint32_t  PROTENSET0;                         
  volatile uint32_t  PROTENSET1;                         
  volatile uint32_t  DISABLEINDEBUG;                     
  volatile const  uint32_t  RESERVED2[256];
  volatile uint32_t  ENRBDREG;                           
} NRF_MPU_Type;


 
 
 




 

typedef struct {                                     
  volatile const  uint32_t  RESERVED0[448];
  volatile uint32_t  REPLACEADDR[8];                     
  volatile const  uint32_t  RESERVED1[24];
  volatile uint32_t  PATCHADDR[8];                       
  volatile const  uint32_t  RESERVED2[24];
  volatile uint32_t  PATCHEN;                            
  volatile uint32_t  PATCHENSET;                         
  volatile uint32_t  PATCHENCLR;                         
} NRF_PU_Type;


 
 
 




 

typedef struct {                                     
  volatile const  uint32_t  RESERVED0[896];
  AMLI_RAMPRI_Type RAMPRI;                           
} NRF_AMLI_Type;


 
 
 




 

typedef struct {                                     
  volatile  uint32_t  TASKS_TXEN;                         
  volatile  uint32_t  TASKS_RXEN;                         
  volatile  uint32_t  TASKS_START;                        
  volatile  uint32_t  TASKS_STOP;                         
  volatile  uint32_t  TASKS_DISABLE;                      
  volatile  uint32_t  TASKS_RSSISTART;                    
  volatile  uint32_t  TASKS_RSSISTOP;                     
  volatile  uint32_t  TASKS_BCSTART;                      
  volatile  uint32_t  TASKS_BCSTOP;                       
  volatile const  uint32_t  RESERVED0[55];
  volatile uint32_t  EVENTS_READY;                       
  volatile uint32_t  EVENTS_ADDRESS;                     
  volatile uint32_t  EVENTS_PAYLOAD;                     
  volatile uint32_t  EVENTS_END;                         
  volatile uint32_t  EVENTS_DISABLED;                    
  volatile uint32_t  EVENTS_DEVMATCH;                    
  volatile uint32_t  EVENTS_DEVMISS;                     
  volatile uint32_t  EVENTS_RSSIEND;                    
 
  volatile const  uint32_t  RESERVED1[2];
  volatile uint32_t  EVENTS_BCMATCH;                     
  volatile const  uint32_t  RESERVED2[53];
  volatile uint32_t  SHORTS;                             
  volatile const  uint32_t  RESERVED3[64];
  volatile uint32_t  INTENSET;                           
  volatile uint32_t  INTENCLR;                           
  volatile const  uint32_t  RESERVED4[61];
  volatile const  uint32_t  CRCSTATUS;                          
  volatile const  uint32_t  RESERVED5;
  volatile const  uint32_t  RXMATCH;                            
  volatile const  uint32_t  RXCRC;                              
  volatile uint32_t  DAI;                                
  volatile const  uint32_t  RESERVED6[60];
  volatile uint32_t  PACKETPTR;                          
  volatile uint32_t  FREQUENCY;                          
  volatile uint32_t  TXPOWER;                            
  volatile uint32_t  MODE;                               
  volatile uint32_t  PCNF0;                              
  volatile uint32_t  PCNF1;                              
  volatile uint32_t  BASE0;                              
  volatile uint32_t  BASE1;                              
  volatile uint32_t  PREFIX0;                            
  volatile uint32_t  PREFIX1;                            
  volatile uint32_t  TXADDRESS;                          
  volatile uint32_t  RXADDRESSES;                        
  volatile uint32_t  CRCCNF;                             
  volatile uint32_t  CRCPOLY;                            
  volatile uint32_t  CRCINIT;                            
  volatile uint32_t  TEST;                               
  volatile uint32_t  TIFS;                               
  volatile uint32_t  RSSISAMPLE;                         
  volatile const  uint32_t  RESERVED7;
  volatile const  uint32_t  STATE;                              
  volatile uint32_t  DATAWHITEIV;                        
  volatile const  uint32_t  RESERVED8[2];
  volatile uint32_t  BCC;                                
  volatile const  uint32_t  RESERVED9[39];
  volatile uint32_t  DAB[8];                             
  volatile uint32_t  DAP[8];                             
  volatile uint32_t  DACNF;                              
  volatile const  uint32_t  RESERVED10[56];
  volatile uint32_t  OVERRIDE0;                          
  volatile uint32_t  OVERRIDE1;                          
  volatile uint32_t  OVERRIDE2;                          
  volatile uint32_t  OVERRIDE3;                          
  volatile uint32_t  OVERRIDE4;                          
  volatile const  uint32_t  RESERVED11[561];
  volatile uint32_t  POWER;                              
} NRF_RADIO_Type;


 
 
 




 

typedef struct {                                     
  volatile  uint32_t  TASKS_STARTRX;                      
  volatile  uint32_t  TASKS_STOPRX;                       
  volatile  uint32_t  TASKS_STARTTX;                      
  volatile  uint32_t  TASKS_STOPTX;                       
  volatile const  uint32_t  RESERVED0[3];
  volatile  uint32_t  TASKS_SUSPEND;                      
  volatile const  uint32_t  RESERVED1[56];
  volatile uint32_t  EVENTS_CTS;                         
  volatile uint32_t  EVENTS_NCTS;                        
  volatile uint32_t  EVENTS_RXDRDY;                      
  volatile const  uint32_t  RESERVED2[4];
  volatile uint32_t  EVENTS_TXDRDY;                      
  volatile const  uint32_t  RESERVED3;
  volatile uint32_t  EVENTS_ERROR;                       
  volatile const  uint32_t  RESERVED4[7];
  volatile uint32_t  EVENTS_RXTO;                        
  volatile const  uint32_t  RESERVED5[46];
  volatile uint32_t  SHORTS;                             
  volatile const  uint32_t  RESERVED6[64];
  volatile uint32_t  INTENSET;                           
  volatile uint32_t  INTENCLR;                           
  volatile const  uint32_t  RESERVED7[93];
  volatile uint32_t  ERRORSRC;                           
  volatile const  uint32_t  RESERVED8[31];
  volatile uint32_t  ENABLE;                             
  volatile const  uint32_t  RESERVED9;
  volatile uint32_t  PSELRTS;                            
  volatile uint32_t  PSELTXD;                            
  volatile uint32_t  PSELCTS;                            
  volatile uint32_t  PSELRXD;                            
  volatile const  uint32_t  RXD;                               

 
  volatile  uint32_t  TXD;                                
  volatile const  uint32_t  RESERVED10;
  volatile uint32_t  BAUDRATE;                           
  volatile const  uint32_t  RESERVED11[17];
  volatile uint32_t  CONFIG;                             
  volatile const  uint32_t  RESERVED12[675];
  volatile uint32_t  POWER;                              
} NRF_UART_Type;


 
 
 




 

typedef struct {                                     
  volatile const  uint32_t  RESERVED0[66];
  volatile uint32_t  EVENTS_READY;                       
  volatile const  uint32_t  RESERVED1[126];
  volatile uint32_t  INTENSET;                           
  volatile uint32_t  INTENCLR;                           
  volatile const  uint32_t  RESERVED2[125];
  volatile uint32_t  ENABLE;                             
  volatile const  uint32_t  RESERVED3;
  volatile uint32_t  PSELSCK;                            
  volatile uint32_t  PSELMOSI;                           
  volatile uint32_t  PSELMISO;                           
  volatile const  uint32_t  RESERVED4;
  volatile uint32_t  RXD;                                
  volatile uint32_t  TXD;                                
  volatile const  uint32_t  RESERVED5;
  volatile uint32_t  FREQUENCY;                          
  volatile const  uint32_t  RESERVED6[11];
  volatile uint32_t  CONFIG;                             
  volatile const  uint32_t  RESERVED7[681];
  volatile uint32_t  POWER;                              
} NRF_SPI_Type;


 
 
 




 

typedef struct {                                     
  volatile  uint32_t  TASKS_STARTRX;                      
  volatile const  uint32_t  RESERVED0;
  volatile  uint32_t  TASKS_STARTTX;                      
  volatile const  uint32_t  RESERVED1[2];
  volatile  uint32_t  TASKS_STOP;                         
  volatile const  uint32_t  RESERVED2;
  volatile  uint32_t  TASKS_SUSPEND;                      
  volatile  uint32_t  TASKS_RESUME;                       
  volatile const  uint32_t  RESERVED3[56];
  volatile uint32_t  EVENTS_STOPPED;                     
  volatile uint32_t  EVENTS_RXDREADY;                    
  volatile const  uint32_t  RESERVED4[4];
  volatile uint32_t  EVENTS_TXDSENT;                     
  volatile const  uint32_t  RESERVED5;
  volatile uint32_t  EVENTS_ERROR;                       
  volatile const  uint32_t  RESERVED6[4];
  volatile uint32_t  EVENTS_BB;                          
  volatile const  uint32_t  RESERVED7[3];
  volatile uint32_t  EVENTS_SUSPENDED;                   
  volatile const  uint32_t  RESERVED8[45];
  volatile uint32_t  SHORTS;                             
  volatile const  uint32_t  RESERVED9[64];
  volatile uint32_t  INTENSET;                           
  volatile uint32_t  INTENCLR;                           
  volatile const  uint32_t  RESERVED10[110];
  volatile uint32_t  ERRORSRC;                           
  volatile const  uint32_t  RESERVED11[14];
  volatile uint32_t  ENABLE;                             
  volatile const  uint32_t  RESERVED12;
  volatile uint32_t  PSELSCL;                            
  volatile uint32_t  PSELSDA;                            
  volatile const  uint32_t  RESERVED13[2];
  volatile uint32_t  RXD;                                
  volatile uint32_t  TXD;                                
  volatile const  uint32_t  RESERVED14;
  volatile uint32_t  FREQUENCY;                          
  volatile const  uint32_t  RESERVED15[24];
  volatile uint32_t  ADDRESS;                            
  volatile const  uint32_t  RESERVED16[668];
  volatile uint32_t  POWER;                              
} NRF_TWI_Type;


 
 
 




 

typedef struct {                                     
  volatile const  uint32_t  RESERVED0[9];
  volatile  uint32_t  TASKS_ACQUIRE;                      
  volatile  uint32_t  TASKS_RELEASE;                      
  volatile const  uint32_t  RESERVED1[54];
  volatile uint32_t  EVENTS_END;                         
  volatile const  uint32_t  RESERVED2[8];
  volatile uint32_t  EVENTS_ACQUIRED;                    
  volatile const  uint32_t  RESERVED3[53];
  volatile uint32_t  SHORTS;                             
  volatile const  uint32_t  RESERVED4[64];
  volatile uint32_t  INTENSET;                           
  volatile uint32_t  INTENCLR;                           
  volatile const  uint32_t  RESERVED5[61];
  volatile const  uint32_t  SEMSTAT;                            
  volatile const  uint32_t  RESERVED6[15];
  volatile uint32_t  STATUS;                             
  volatile const  uint32_t  RESERVED7[47];
  volatile uint32_t  ENABLE;                             
  volatile const  uint32_t  RESERVED8;
  volatile uint32_t  PSELSCK;                            
  volatile uint32_t  PSELMISO;                           
  volatile uint32_t  PSELMOSI;                           
  volatile uint32_t  PSELCSN;                            
  volatile const  uint32_t  RESERVED9[7];
  volatile uint32_t  RXDPTR;                             
  volatile uint32_t  MAXRX;                              
  volatile uint32_t  AMOUNTRX;                           
  volatile const  uint32_t  RESERVED10;
  volatile uint32_t  TXDPTR;                             
  volatile uint32_t  MAXTX;                              
  volatile uint32_t  AMOUNTTX;                           
  volatile const  uint32_t  RESERVED11;
  volatile uint32_t  CONFIG;                             
  volatile const  uint32_t  RESERVED12;
  volatile uint32_t  DEF;                                
  volatile const  uint32_t  RESERVED13[24];
  volatile uint32_t  ORC;                                
  volatile const  uint32_t  RESERVED14[654];
  volatile uint32_t  POWER;                              
} NRF_SPIS_Type;


 
 
 




 

typedef struct {                                     
  volatile  uint32_t  TASKS_OUT[4];                       
  volatile const  uint32_t  RESERVED0[60];
  volatile uint32_t  EVENTS_IN[4];                       
  volatile const  uint32_t  RESERVED1[27];
  volatile uint32_t  EVENTS_PORT;                        
  volatile const  uint32_t  RESERVED2[97];
  volatile uint32_t  INTENSET;                           
  volatile uint32_t  INTENCLR;                           
  volatile const  uint32_t  RESERVED3[129];
  volatile uint32_t  CONFIG[4];                          
  volatile const  uint32_t  RESERVED4[695];
  volatile uint32_t  POWER;                              
} NRF_GPIOTE_Type;


 
 
 




 

typedef struct {                                     
  volatile  uint32_t  TASKS_START;                        
  volatile  uint32_t  TASKS_STOP;                         
  volatile const  uint32_t  RESERVED0[62];
  volatile uint32_t  EVENTS_END;                         
  volatile const  uint32_t  RESERVED1[128];
  volatile uint32_t  INTENSET;                           
  volatile uint32_t  INTENCLR;                           
  volatile const  uint32_t  RESERVED2[61];
  volatile const  uint32_t  BUSY;                               
  volatile const  uint32_t  RESERVED3[63];
  volatile uint32_t  ENABLE;                             
  volatile uint32_t  CONFIG;                             
  volatile const  uint32_t  RESULT;                             
  volatile const  uint32_t  RESERVED4[700];
  volatile uint32_t  POWER;                              
} NRF_ADC_Type;


 
 
 




 

typedef struct {                                     
  volatile  uint32_t  TASKS_START;                        
  volatile  uint32_t  TASKS_STOP;                         
  volatile  uint32_t  TASKS_COUNT;                        
  volatile  uint32_t  TASKS_CLEAR;                        
  volatile  uint32_t  TASKS_SHUTDOWN;                     
  volatile const  uint32_t  RESERVED0[11];
  volatile  uint32_t  TASKS_CAPTURE[4];                   
  volatile const  uint32_t  RESERVED1[60];
  volatile uint32_t  EVENTS_COMPARE[4];                  
  volatile const  uint32_t  RESERVED2[44];
  volatile uint32_t  SHORTS;                             
  volatile const  uint32_t  RESERVED3[64];
  volatile uint32_t  INTENSET;                           
  volatile uint32_t  INTENCLR;                           
  volatile const  uint32_t  RESERVED4[126];
  volatile uint32_t  MODE;                               
  volatile uint32_t  BITMODE;                            
  volatile const  uint32_t  RESERVED5;
  volatile uint32_t  PRESCALER;                         
 
  volatile const  uint32_t  RESERVED6[11];
  volatile uint32_t  CC[4];                              
  volatile const  uint32_t  RESERVED7[683];
  volatile uint32_t  POWER;                              
} NRF_TIMER_Type;


 
 
 




 

typedef struct {                                     
  volatile  uint32_t  TASKS_START;                        
  volatile  uint32_t  TASKS_STOP;                         
  volatile  uint32_t  TASKS_CLEAR;                        
  volatile  uint32_t  TASKS_TRIGOVRFLW;                   
  volatile const  uint32_t  RESERVED0[60];
  volatile uint32_t  EVENTS_TICK;                        
  volatile uint32_t  EVENTS_OVRFLW;                      
  volatile const  uint32_t  RESERVED1[14];
  volatile uint32_t  EVENTS_COMPARE[4];                  
  volatile const  uint32_t  RESERVED2[109];
  volatile uint32_t  INTENSET;                           
  volatile uint32_t  INTENCLR;                           
  volatile const  uint32_t  RESERVED3[13];
  volatile uint32_t  EVTEN;                              
  volatile uint32_t  EVTENSET;                          
 
  volatile uint32_t  EVTENCLR;                          
 
  volatile const  uint32_t  RESERVED4[110];
  volatile uint32_t  COUNTER;                            
  volatile uint32_t  PRESCALER;                         
 
  volatile const  uint32_t  RESERVED5[13];
  volatile uint32_t  CC[4];                              
  volatile const  uint32_t  RESERVED6[683];
  volatile uint32_t  POWER;                              
} NRF_RTC_Type;


 
 
 




 

typedef struct {                                     
  volatile  uint32_t  TASKS_START;                        
  volatile  uint32_t  TASKS_STOP;                         
  volatile const  uint32_t  RESERVED0[62];
  volatile uint32_t  EVENTS_DATARDY;                     
  volatile const  uint32_t  RESERVED1[128];
  volatile uint32_t  INTENSET;                           
  volatile uint32_t  INTENCLR;                           
  volatile const  uint32_t  RESERVED2[127];
  volatile const  int32_t   TEMP;                               
  volatile const  uint32_t  RESERVED3[700];
  volatile uint32_t  POWER;                              
} NRF_TEMP_Type;


 
 
 




 

typedef struct {                                     
  volatile  uint32_t  TASKS_START;                        
  volatile  uint32_t  TASKS_STOP;                         
  volatile const  uint32_t  RESERVED0[62];
  volatile uint32_t  EVENTS_VALRDY;                      
  volatile const  uint32_t  RESERVED1[63];
  volatile uint32_t  SHORTS;                             
  volatile const  uint32_t  RESERVED2[64];
  volatile uint32_t  INTENSET;                           
  volatile uint32_t  INTENCLR;                           
  volatile const  uint32_t  RESERVED3[126];
  volatile uint32_t  CONFIG;                             
  volatile const  uint32_t  VALUE;                              
  volatile const  uint32_t  RESERVED4[700];
  volatile uint32_t  POWER;                              
} NRF_RNG_Type;


 
 
 




 

typedef struct {                                     
  volatile  uint32_t  TASKS_STARTECB;                    

 
  volatile  uint32_t  TASKS_STOPECB;                     
 
  volatile const  uint32_t  RESERVED0[62];
  volatile uint32_t  EVENTS_ENDECB;                      
  volatile uint32_t  EVENTS_ERRORECB;                   
 
  volatile const  uint32_t  RESERVED1[127];
  volatile uint32_t  INTENSET;                           
  volatile uint32_t  INTENCLR;                           
  volatile const  uint32_t  RESERVED2[126];
  volatile uint32_t  ECBDATAPTR;                         
  volatile const  uint32_t  RESERVED3[701];
  volatile uint32_t  POWER;                              
} NRF_ECB_Type;


 
 
 




 

typedef struct {                                     
  volatile  uint32_t  TASKS_START;                       
 
  volatile const  uint32_t  RESERVED0;
  volatile  uint32_t  TASKS_STOP;                         
  volatile const  uint32_t  RESERVED1[61];
  volatile uint32_t  EVENTS_END;                         
  volatile uint32_t  EVENTS_RESOLVED;                    
  volatile uint32_t  EVENTS_NOTRESOLVED;                 
  volatile const  uint32_t  RESERVED2[126];
  volatile uint32_t  INTENSET;                           
  volatile uint32_t  INTENCLR;                           
  volatile const  uint32_t  RESERVED3[61];
  volatile const  uint32_t  STATUS;                             
  volatile const  uint32_t  RESERVED4[63];
  volatile uint32_t  ENABLE;                             
  volatile uint32_t  NIRK;                               
  volatile uint32_t  IRKPTR;                             
  volatile const  uint32_t  RESERVED5;
  volatile uint32_t  ADDRPTR;                            
  volatile uint32_t  SCRATCHPTR;                        
 
  volatile const  uint32_t  RESERVED6[697];
  volatile uint32_t  POWER;                              
} NRF_AAR_Type;


 
 
 




 

typedef struct {                                     
  volatile  uint32_t  TASKS_KSGEN;                       
 
  volatile  uint32_t  TASKS_CRYPT;                       
 
  volatile  uint32_t  TASKS_STOP;                         
  volatile const  uint32_t  RESERVED0[61];
  volatile uint32_t  EVENTS_ENDKSGEN;                    
  volatile uint32_t  EVENTS_ENDCRYPT;                    
  volatile uint32_t  EVENTS_ERROR;                       
  volatile const  uint32_t  RESERVED1[61];
  volatile uint32_t  SHORTS;                             
  volatile const  uint32_t  RESERVED2[64];
  volatile uint32_t  INTENSET;                           
  volatile uint32_t  INTENCLR;                           
  volatile const  uint32_t  RESERVED3[61];
  volatile const  uint32_t  MICSTATUS;                          
  volatile const  uint32_t  RESERVED4[63];
  volatile uint32_t  ENABLE;                             
  volatile uint32_t  MODE;                               
  volatile uint32_t  CNFPTR;                             
  volatile uint32_t  INPTR;                              
  volatile uint32_t  OUTPTR;                             
  volatile uint32_t  SCRATCHPTR;                        
 
  volatile const  uint32_t  RESERVED5[697];
  volatile uint32_t  POWER;                              
} NRF_CCM_Type;


 
 
 




 

typedef struct {                                     
  volatile  uint32_t  TASKS_START;                        
  volatile const  uint32_t  RESERVED0[63];
  volatile uint32_t  EVENTS_TIMEOUT;                     
  volatile const  uint32_t  RESERVED1[128];
  volatile uint32_t  INTENSET;                           
  volatile uint32_t  INTENCLR;                           
  volatile const  uint32_t  RESERVED2[61];
  volatile const  uint32_t  RUNSTATUS;                          
  volatile const  uint32_t  REQSTATUS;                          
  volatile const  uint32_t  RESERVED3[63];
  volatile uint32_t  CRV;                                
  volatile uint32_t  RREN;                               
  volatile uint32_t  CONFIG;                             
  volatile const  uint32_t  RESERVED4[60];
  volatile  uint32_t  RR[8];                              
  volatile const  uint32_t  RESERVED5[631];
  volatile uint32_t  POWER;                              
} NRF_WDT_Type;


 
 
 




 

typedef struct {                                     
  volatile  uint32_t  TASKS_START;                        
  volatile  uint32_t  TASKS_STOP;                         
  volatile  uint32_t  TASKS_READCLRACC;                  
 
  volatile const  uint32_t  RESERVED0[61];
  volatile uint32_t  EVENTS_SAMPLERDY;                   
  volatile uint32_t  EVENTS_REPORTRDY;                  
 
  volatile uint32_t  EVENTS_ACCOF;                       
  volatile const  uint32_t  RESERVED1[61];
  volatile uint32_t  SHORTS;                             
  volatile const  uint32_t  RESERVED2[64];
  volatile uint32_t  INTENSET;                           
  volatile uint32_t  INTENCLR;                           
  volatile const  uint32_t  RESERVED3[125];
  volatile uint32_t  ENABLE;                             
  volatile uint32_t  LEDPOL;                             
  volatile uint32_t  SAMPLEPER;                          
  volatile const  int32_t   SAMPLE;                             
  volatile uint32_t  REPORTPER;                          
  volatile const  int32_t   ACC;                                
  volatile const  int32_t   ACCREAD;                           
 
  volatile uint32_t  PSELLED;                            
  volatile uint32_t  PSELA;                              
  volatile uint32_t  PSELB;                              
  volatile uint32_t  DBFEN;                              
  volatile const  uint32_t  RESERVED4[5];
  volatile uint32_t  LEDPRE;                             
  volatile const  uint32_t  ACCDBL;                             
  volatile const  uint32_t  ACCDBLREAD;                        
 
  volatile const  uint32_t  RESERVED5[684];
  volatile uint32_t  POWER;                              
} NRF_QDEC_Type;


 
 
 




 

typedef struct {                                     
  volatile  uint32_t  TASKS_START;                        
  volatile  uint32_t  TASKS_STOP;                         
  volatile  uint32_t  TASKS_SAMPLE;                       
  volatile const  uint32_t  RESERVED0[61];
  volatile uint32_t  EVENTS_READY;                       
  volatile uint32_t  EVENTS_DOWN;                        
  volatile uint32_t  EVENTS_UP;                          
  volatile uint32_t  EVENTS_CROSS;                       
  volatile const  uint32_t  RESERVED1[60];
  volatile uint32_t  SHORTS;                             
  volatile const  uint32_t  RESERVED2[64];
  volatile uint32_t  INTENSET;                           
  volatile uint32_t  INTENCLR;                           
  volatile const  uint32_t  RESERVED3[61];
  volatile const  uint32_t  RESULT;                             
  volatile const  uint32_t  RESERVED4[63];
  volatile uint32_t  ENABLE;                             
  volatile uint32_t  PSEL;                               
  volatile uint32_t  REFSEL;                             
  volatile uint32_t  EXTREFSEL;                          
  volatile const  uint32_t  RESERVED5[4];
  volatile uint32_t  ANADETECT;                          
  volatile const  uint32_t  RESERVED6[694];
  volatile uint32_t  POWER;                              
} NRF_LPCOMP_Type;


 
 
 




 

typedef struct {                                     
  volatile  uint32_t  TASKS_START;                        
  volatile  uint32_t  TASKS_STOP;                         
  volatile  uint32_t  TASKS_SAMPLE;                       
  volatile const  uint32_t  RESERVED0[61];
  volatile uint32_t  EVENTS_READY;                       
  volatile uint32_t  EVENTS_DOWN;                        
  volatile uint32_t  EVENTS_UP;                          
  volatile uint32_t  EVENTS_CROSS;                       
  volatile const  uint32_t  RESERVED1[60];
  volatile uint32_t  SHORTS;                             
  volatile const  uint32_t  RESERVED2[64];
  volatile uint32_t  INTENSET;                           
  volatile uint32_t  INTENCLR;                           
  volatile const  uint32_t  RESERVED3[61];
  volatile const  uint32_t  RESULT;                             
  volatile const  uint32_t  RESERVED4[63];
  volatile uint32_t  ENABLE;                             
  volatile uint32_t  PSEL;                               
  volatile uint32_t  REFSEL;                             
  volatile uint32_t  EXTREFSEL;                          
  volatile const  uint32_t  RESERVED5[8];
  volatile uint32_t  TH;                                 
  volatile uint32_t  MODE;                               
  volatile const  uint32_t  RESERVED6[689];
  volatile uint32_t  POWER;                              
} NRF_COMP_Type;


 
 
 




 

typedef struct {                                     
  volatile const  uint32_t  UNUSED;                             
} NRF_SWI_Type;


 
 
 




 

typedef struct {                                     
  volatile const  uint32_t  RESERVED0[256];
  volatile const  uint32_t  READY;                              
  volatile const  uint32_t  RESERVED1[64];
  volatile uint32_t  CONFIG;                             
  volatile uint32_t  ERASEPAGE;                          
  volatile uint32_t  ERASEALL;                           
  volatile uint32_t  ERASEPROTECTEDPAGE;                 
  volatile uint32_t  ERASEUICR;                          
} NRF_NVMC_Type;


 
 
 




 

typedef struct {                                     
  PPI_TASKS_CHG_Type TASKS_CHG[4];                   
  volatile const  uint32_t  RESERVED0[312];
  volatile uint32_t  CHEN;                               
  volatile uint32_t  CHENSET;                            
  volatile uint32_t  CHENCLR;                            
  volatile const  uint32_t  RESERVED1;
  PPI_CH_Type CH[16];                                
  volatile const  uint32_t  RESERVED2[156];
  volatile uint32_t  CHG[4];                             
} NRF_PPI_Type;


 
 
 




 

typedef struct {                                     
  volatile const  uint32_t  RESERVED0[4];
  volatile const  uint32_t  CODEPAGESIZE;                       
  volatile const  uint32_t  CODESIZE;                           
  volatile const  uint32_t  RBD;                                
  volatile const  uint32_t  RESERVED1[3];
  volatile const  uint32_t  CLENR0;                             
  volatile const  uint32_t  PPFC;                               
  volatile const  uint32_t  RESERVED2;
  volatile const  uint32_t  NUMRAMBLOCK;                        
  volatile const  uint32_t  SIZERAMBLOCK[4];                    
  volatile const  uint32_t  RESERVED3[5];
  volatile const  uint32_t  CONFIGID;                           
  volatile const  uint32_t  DEVICEID[2];                        
  volatile const  uint32_t  RESERVED4[6];
  volatile const  uint32_t  ER[4];                              
  volatile const  uint32_t  IR[4];                              
  volatile const  uint32_t  DEVICEADDRTYPE;                     
  volatile const  uint32_t  DEVICEADDR[2];                      
  volatile const  uint32_t  OVERRIDEEN;                         
  volatile const  uint32_t  NRF_1MBIT[5];                      
 
  volatile const  uint32_t  RESERVED5[10];
  volatile const  uint32_t  BLE_1MBIT[5];                      
 
} NRF_FICR_Type;


 
 
 




 

typedef struct {                                     
  volatile uint32_t  CLENR0;                             
  volatile uint32_t  RBPCONF;                            
  volatile uint32_t  XTALFREQ;                           
  volatile const  uint32_t  RESERVED0;
  volatile const  uint32_t  FWID;                               
  volatile uint32_t  BOOTLOADERADDR;                     
} NRF_UICR_Type;


 
 
 




 

typedef struct {                                     
  volatile const  uint32_t  RESERVED0[321];
  volatile uint32_t  OUT;                                
  volatile uint32_t  OUTSET;                             
  volatile uint32_t  OUTCLR;                             
  volatile const  uint32_t  IN;                                 
  volatile uint32_t  DIR;                                
  volatile uint32_t  DIRSET;                             
  volatile uint32_t  DIRCLR;                             
  volatile const  uint32_t  RESERVED1[120];
  volatile uint32_t  PIN_CNF[32];                        
} NRF_GPIO_Type;


 

  #pragma pop
#line 1152 "..\\..\\..\\..\\..\\Include\\nrf51.h"




 
 
 

#line 1194 "..\\..\\..\\..\\..\\Include\\nrf51.h"


 
 
 

#line 1234 "..\\..\\..\\..\\..\\Include\\nrf51.h"


   
   
   








#line 22 "..\\..\\..\\..\\..\\Include\\nrf.h"
#line 1 "..\\..\\..\\..\\..\\Include\\nrf51_bitfields.h"










 





 

#line 1 "e:\\Keil\\ARM\\PACK\\ARM\\CMSIS\\3.20.4\\CMSIS\\Include\\core_cm0.h"
 







 

























 










#line 131 "e:\\Keil\\ARM\\PACK\\ARM\\CMSIS\\3.20.4\\CMSIS\\Include\\core_cm0.h"



#line 677 "e:\\Keil\\ARM\\PACK\\ARM\\CMSIS\\3.20.4\\CMSIS\\Include\\core_cm0.h"



#line 20 "..\\..\\..\\..\\..\\Include\\nrf51_bitfields.h"

 
 

 
 

 






 






 






 
 

 






 






 






 
 

 



 
 

 





 
 

 



 
 

 






 
 

 
 

 






 
 

 






 
 

 





 
 

 





 
 

 






 
#line 168 "..\\..\\..\\..\\..\\Include\\nrf51_bitfields.h"

 
#line 176 "..\\..\\..\\..\\..\\Include\\nrf51_bitfields.h"

 
#line 185 "..\\..\\..\\..\\..\\Include\\nrf51_bitfields.h"

 






 
 

 



 
 

 






 
 

 
 

 
#line 227 "..\\..\\..\\..\\..\\Include\\nrf51_bitfields.h"

 
#line 239 "..\\..\\..\\..\\..\\Include\\nrf51_bitfields.h"

 
#line 251 "..\\..\\..\\..\\..\\Include\\nrf51_bitfields.h"

 
#line 263 "..\\..\\..\\..\\..\\Include\\nrf51_bitfields.h"

 
 

 
#line 278 "..\\..\\..\\..\\..\\Include\\nrf51_bitfields.h"

 
#line 290 "..\\..\\..\\..\\..\\Include\\nrf51_bitfields.h"

 
#line 302 "..\\..\\..\\..\\..\\Include\\nrf51_bitfields.h"

 
#line 314 "..\\..\\..\\..\\..\\Include\\nrf51_bitfields.h"

 
 

 
#line 329 "..\\..\\..\\..\\..\\Include\\nrf51_bitfields.h"

 
#line 341 "..\\..\\..\\..\\..\\Include\\nrf51_bitfields.h"

 
#line 353 "..\\..\\..\\..\\..\\Include\\nrf51_bitfields.h"

 
#line 365 "..\\..\\..\\..\\..\\Include\\nrf51_bitfields.h"

 
 

 
#line 380 "..\\..\\..\\..\\..\\Include\\nrf51_bitfields.h"

 
#line 392 "..\\..\\..\\..\\..\\Include\\nrf51_bitfields.h"

 
#line 404 "..\\..\\..\\..\\..\\Include\\nrf51_bitfields.h"

 
#line 416 "..\\..\\..\\..\\..\\Include\\nrf51_bitfields.h"

 
 

 
#line 431 "..\\..\\..\\..\\..\\Include\\nrf51_bitfields.h"

 
#line 443 "..\\..\\..\\..\\..\\Include\\nrf51_bitfields.h"

 
#line 455 "..\\..\\..\\..\\..\\Include\\nrf51_bitfields.h"

 
#line 467 "..\\..\\..\\..\\..\\Include\\nrf51_bitfields.h"

 
 

 
#line 482 "..\\..\\..\\..\\..\\Include\\nrf51_bitfields.h"

 
#line 494 "..\\..\\..\\..\\..\\Include\\nrf51_bitfields.h"

 
#line 506 "..\\..\\..\\..\\..\\Include\\nrf51_bitfields.h"

 
#line 518 "..\\..\\..\\..\\..\\Include\\nrf51_bitfields.h"

 
 

 
 

 





 
 

 






 






 






 
 

 






 






 






 
 

 





 
 

 





 
 

 





 
 

 






 
 

 
 

 






 






 






 






 
 

 






 






 






 






 
 

 





 
 

 





 





 
 

 





 
 

 





 






 
 

 






 
 

 






 
 

 



 
 

 






 
 

 
 

 





 





 





 





 





 
 

 






 






 






 






 
 

 






 






 






 






 
 

 





 
 

 





 
 

 
#line 897 "..\\..\\..\\..\\..\\Include\\nrf51_bitfields.h"

 
 

 
#line 909 "..\\..\\..\\..\\..\\Include\\nrf51_bitfields.h"

 
 

 





 
 

 



 



 
 

 





 






 
 

 






 
 

 
 

 






 






 
 

 






 






 
 

 






 
 

 
 

 





 
 

 





 
 

 



 



 
 

 





 
 

 





 






 
 

 
 

 





 





 





 





 





 





 





 





 





 





 





 





 





 





 





 





 





 





 





 





 





 





 





 





 





 





 





 





 





 





 





 





 
 

 






 






 






 






 






 






 






 






 






 






 






 






 






 






 






 






 






 






 






 






 






 






 






 






 






 






 






 






 






 






 






 






 
 

 






 






 






 






 






 






 






 






 






 






 






 






 






 






 






 






 






 






 






 






 






 






 






 






 






 






 






 






 






 






 






 






 
 

 





 





 





 





 





 





 





 





 





 





 





 





 





 





 





 





 





 





 





 





 





 





 





 





 





 





 





 





 





 





 





 





 
 

 





 





 





 





 





 





 





 





 





 





 





 





 





 





 





 





 





 





 





 





 





 





 





 





 





 





 





 





 





 





 





 





 
 

 






 






 






 






 






 






 






 






 






 






 






 






 






 






 






 






 






 






 






 






 






 






 






 






 






 






 






 






 






 






 






 






 
 

 






 






 






 






 






 






 






 






 






 






 






 






 






 






 






 






 






 






 






 






 






 






 






 






 






 






 






 






 






 






 






 






 
 

 






 
#line 2577 "..\\..\\..\\..\\..\\Include\\nrf51_bitfields.h"

 






 





 






 
 

 
 

 






 






 






 






 






 
 

 






 






 






 






 






 
 

 





 






 



 






 
 

 






 
 

 
 

 





 





 





 





 





 
 

 






 






 






 






 
 

 






 






 






 






 
 

 





 
 

 





 
 

 
#line 2844 "..\\..\\..\\..\\..\\Include\\nrf51_bitfields.h"

 
 

 
#line 2859 "..\\..\\..\\..\\..\\Include\\nrf51_bitfields.h"

 
 

 





 
 

 






 
 

 






 
 

 
 

 





 





 





 





 





 





 





 





 





 





 





 





 





 





 





 





 





 





 





 





 





 
 

 






 






 






 






 






 






 






 






 






 






 






 






 






 






 






 






 






 






 






 






 






 






 






 






 






 






 






 






 






 






 






 






 
 

 






 






 






 






 






 






 






 






 






 






 






 






 






 






 






 






 






 






 






 






 






 






 






 






 






 






 






 






 






 






 






 






 
 

 





 
 

 






 
 

 
 

 





 
 

 






 
 

 





 
 

 






 
 

 
 

 






 
 

 






 
 

 



 



 



 



 



 



 



 
 

 





 





 





 





 
 

 




 
 

 
#line 3634 "..\\..\\..\\..\\..\\Include\\nrf51_bitfields.h"

 





 
 

 



 
 

 





 





 





 





 





 





 





 





 
 

 





 
 

 





 
 

 





 






 
 

 
 

 





 





 





 





 





 





 





 





 





 





 





 





 





 





 





 





 





 





 





 





 





 





 





 





 





 





 





 





 
 

 






 






 






 






 






 






 






 






 






 






 






 






 






 






 






 






 






 






 






 






 






 






 






 






 






 






 






 






 
 

 






 






 






 






 






 






 






 






 






 






 






 






 






 






 






 






 






 






 






 






 






 






 






 






 






 






 






 






 
 

 





 





 





 





 





 





 





 





 





 





 





 





 





 





 





 





 





 





 





 





 





 





 





 





 





 





 





 






 
 

 
 

 



 
 

 





 





 





 





 





 





 





 





 
 

 






 






 






 






 






 






 






 






 
 

 






 






 






 






 






 






 






 







 
 

 
 

 





 





 
 

 






 






 






 
 

 






 






 






 
 

 





 
 

 





 
 

 
#line 4755 "..\\..\\..\\..\\..\\Include\\nrf51_bitfields.h"

 
 

 



 
 

 
#line 4777 "..\\..\\..\\..\\..\\Include\\nrf51_bitfields.h"

 
 

 





 
 

 



 
 

 



 
 

 



 
 

 






 
 

 
 

 





 





 





 





 





 





 





 





 
 

 






 






 






 






 






 






 






 






 






 
 

 






 






 






 






 






 






 






 






 






 
 

 





 
 

 



 
 

 



 
 

 



 
 

 



 
 

 
#line 5055 "..\\..\\..\\..\\..\\Include\\nrf51_bitfields.h"

 
 

 
#line 5066 "..\\..\\..\\..\\..\\Include\\nrf51_bitfields.h"

 
 

 



 



 



 
 

 





 





 



 



 



 
 

 



 



 



 



 
 

 



 



 



 



 
 

 



 
 

 





 





 





 





 





 





 





 





 
 

 





 
#line 5221 "..\\..\\..\\..\\..\\Include\\nrf51_bitfields.h"

 
 

 



 
 

 



 
 

 





 





 
 

 



 
 

 



 
 

 
#line 5280 "..\\..\\..\\..\\..\\Include\\nrf51_bitfields.h"

 
 

 



 
 

 



 
 

 



 



 



 



 



 



 



 



 





 





 





 





 





 





 





 





 
 

 



 
 

 



 
 

 



 
 

 



 
 

 





 



 
 

 






 
 

 
 

 





 
 

 






 
 

 






 
 

 





 
 

 



 
 

 






 
 

 
 

 






 






 






 






 






 






 
 

 






 






 






 






 






 






 
 

 





 





 





 





 





 





 
 

 






 






 






 






 






 






 
 

 






 






 






 






 






 






 
 

 



 
 

 



 
 

 



 
 

 






 
 

 
 

 






 
 

 






 
 

 





 
 

 



 
 

 



 
 

 
#line 5799 "..\\..\\..\\..\\..\\Include\\nrf51_bitfields.h"

 
 

 





 





 





 
 

 






 
 

 
 

 





 
 

 






 






 
 

 






 






 
 

 
#line 5887 "..\\..\\..\\..\\..\\Include\\nrf51_bitfields.h"

 
 

 






 






 
 

 





 
 

 



 
 

 



 
 

 



 
 

 



 
 

 





 





 





 
 

 



 
 

 



 
 

 






 
 

 
 

 






 
 

 






 
 

 






 
 

 
 

 





 





 





 





 





 





 





 





 
 

 






 






 






 






 
 

 






 






 






 






 
 

 





 
 

 
#line 6155 "..\\..\\..\\..\\..\\Include\\nrf51_bitfields.h"

 
 

 



 
 

 






 
 

 
 

 





 





 
 

 






 






 






 






 






 






 
 

 






 






 






 






 






 






 
 

 






 






 
 

 





 
 

 



 
 

 



 
 

 






 
 

 



 
 

 






 
 

 
 

 





 





 
 

 






 






 






 






 






 






 
 

 






 






 






 






 






 






 
 

 






 






 






 






 
 

 





 
 

 



 
 

 



 
 

 
#line 6532 "..\\..\\..\\..\\..\\Include\\nrf51_bitfields.h"

 
 

 





 





 
 

 






 
 

 
 

 





 





 
 

 





 
 

 




 
 

 
 

 






 
 

 






 
 

 





 
 

 





 





 





 





 





 





 





 





 
 

 





 





 





 





 





 





 





 





 
 

 





 





 
 

 




 
 

 






 
#line 23 "..\\..\\..\\..\\..\\Include\\nrf.h"
#line 1 "..\\..\\..\\..\\..\\Include\\nrf51_deprecated.h"










 





 




 


 
#line 42 "..\\..\\..\\..\\..\\Include\\nrf51_deprecated.h"


 
#line 89 "..\\..\\..\\..\\..\\Include\\nrf51_deprecated.h"



#line 156 "..\\..\\..\\..\\..\\Include\\nrf51_deprecated.h"

#line 221 "..\\..\\..\\..\\..\\Include\\nrf51_deprecated.h"

#line 286 "..\\..\\..\\..\\..\\Include\\nrf51_deprecated.h"

#line 351 "..\\..\\..\\..\\..\\Include\\nrf51_deprecated.h"



 



#line 24 "..\\..\\..\\..\\..\\Include\\nrf.h"




#line 1 "..\\..\\..\\..\\..\\Include\\compiler_abstraction.h"










 





 


    



    



    

  
#line 74 "..\\..\\..\\..\\..\\Include\\compiler_abstraction.h"

 

#line 29 "..\\..\\..\\..\\..\\Include\\nrf.h"





#line 25 "..\\..\\..\\..\\..\\Include\\gzll\\nrf_gzll.h"
#line 1 "..\\..\\..\\..\\..\\Include\\gzll\\nrf_gzll_constants.h"











 







 








 

 
 
 
 













               


 
#line 58 "..\\..\\..\\..\\..\\Include\\gzll\\nrf_gzll_constants.h"




#line 88 "..\\..\\..\\..\\..\\Include\\gzll\\nrf_gzll_constants.h"






 


 
 
 
 





 



 
 
 





 


 
 
 








 
#line 145 "..\\..\\..\\..\\..\\Include\\gzll\\nrf_gzll_constants.h"



 


 
 
 
#line 161 "..\\..\\..\\..\\..\\Include\\gzll\\nrf_gzll_constants.h"
 


 
#line 26 "..\\..\\..\\..\\..\\Include\\gzll\\nrf_gzll.h"







 





 
typedef enum
{
  NRF_GZLL_MODE_DEVICE,       
  NRF_GZLL_MODE_HOST,         
} nrf_gzll_mode_t;






 
typedef enum
{
  NRF_GZLL_DEVICE_CHANNEL_SELECTION_POLICY_USE_SUCCESSFUL, 
  NRF_GZLL_DEVICE_CHANNEL_SELECTION_POLICY_USE_CURRENT,    
} nrf_gzll_device_channel_selection_policy_t;





 
typedef enum
{
  NRF_GZLL_TX_POWER_4_DBM,          
  NRF_GZLL_TX_POWER_0_DBM,          
  NRF_GZLL_TX_POWER_N4_DBM,         
  NRF_GZLL_TX_POWER_N8_DBM,         
  NRF_GZLL_TX_POWER_N12_DBM,        
  NRF_GZLL_TX_POWER_N16_DBM,        
  NRF_GZLL_TX_POWER_N20_DBM         
} nrf_gzll_tx_power_t;





 
typedef enum
{
  NRF_GZLL_DATARATE_250KBIT,    
  NRF_GZLL_DATARATE_1MBIT,      
  NRF_GZLL_DATARATE_2MBIT       
} nrf_gzll_datarate_t;







 
typedef enum
{
  NRF_GZLL_XOSC_CTL_AUTO,   
  NRF_GZLL_XOSC_CTL_MANUAL  
} nrf_gzll_xosc_ctl_t;




 
typedef enum
{
  NRF_GZLL_ERROR_CODE_NO_ERROR                            =  0,
  
  NRF_GZLL_ERROR_CODE_FAILED_TO_INITIALIZE                =  1,
  
  NRF_GZLL_ERROR_CODE_ATTEMPTED_TO_CONFIGURE_WHEN_ENABLED =  2,
  
  
  NRF_GZLL_ERROR_CODE_POINTER_IS_NULL                     =  3,
  
  NRF_GZLL_ERROR_CODE_INVALID_PIPE                        =  4,
  
  NRF_GZLL_ERROR_CODE_INVALID_MODE                        =  5,
  
  
  NRF_GZLL_ERROR_CODE_INVALID_PAYLOAD_LENGTH              =  6,
  
  NRF_GZLL_ERROR_CODE_INVALID_CHANNEL_TABLE_SIZE          =  7,
  
  NRF_GZLL_ERROR_CODE_INSUFFICIENT_PACKETS_AVAILABLE      =  8,
  
  
  NRF_GZLL_ERROR_CODE_ATTEMPTED_TO_ADD_TO_FULL_FIFO     =  9,
  
  NRF_GZLL_ERROR_CODE_NO_SPACE_IN_RX_FIFO_FOR_ACK        = 10,
  
  NRF_GZLL_ERROR_CODE_ATTEMPTED_TO_FETCH_FROM_EMPTY_FIFO  = 11,
  
  NRF_GZLL_ERROR_CODE_ATTEMPTED_TO_FLUSH_WHEN_ENABLED    = 12,
  
  NRF_GZLL_ERROR_CODE_INVALID_PARAMETER                   = 14,
  
  NRF_GZLL_ERROR_CODE_INTERNAL_ASSERT_OCCURRED            = 15,
  
  NRF_GZLL_ERROR_CODE_CALLBACK_NOT_IMPLEMENTED            = 16,
  
  NRF_GZLL_ERROR_CODE_NUMBER_OF_ERROR_CODES               = 17,
  
} nrf_gzll_error_code_t;






 
typedef struct
{
  _Bool payload_received_in_ack;   
  
  uint16_t num_tx_attempts;
  
  uint16_t num_channel_switches;
  
  int16_t rssi;
  
} nrf_gzll_device_tx_info_t;





 
typedef struct
{
  _Bool packet_removed_from_tx_fifo;
  
  int16_t rssi;
  
} nrf_gzll_host_rx_info_t;




 

 
 









 
_Bool nrf_gzll_init(nrf_gzll_mode_t mode);









 
_Bool nrf_gzll_enable(void);













 
void nrf_gzll_disable(void);






 
_Bool nrf_gzll_is_enabled(void);

 


 

 
 












 
void nrf_gzll_device_tx_success(uint32_t pipe, nrf_gzll_device_tx_info_t tx_info);












 
void nrf_gzll_device_tx_failed(uint32_t pipe, nrf_gzll_device_tx_info_t tx_info); 


 



 

 
 
                                                      








 
void nrf_gzll_host_rx_data_ready(uint32_t pipe, nrf_gzll_host_rx_info_t rx_info);


 

 

 
 








 
void nrf_gzll_disabled(void);


 


 

 
 














 
_Bool nrf_gzll_add_packet_to_tx_fifo(uint32_t pipe, uint8_t * payload, uint32_t length);












 
_Bool nrf_gzll_fetch_packet_from_rx_fifo(uint32_t pipe, uint8_t * payload, uint32_t* length);









 
int32_t nrf_gzll_get_tx_fifo_packet_count(uint32_t pipe);








 
int32_t nrf_gzll_get_rx_fifo_packet_count(uint32_t pipe);









 
uint32_t nrf_gzll_get_total_allocated_packet_count(void);












 
_Bool nrf_gzll_ok_to_add_packet_to_tx_fifo(uint32_t pipe);













 
_Bool nrf_gzll_flush_tx_fifo(uint32_t pipe);











 
_Bool nrf_gzll_flush_rx_fifo(uint32_t pipe);


 


 







 
 










 
_Bool nrf_gzll_set_mode(nrf_gzll_mode_t mode);






 
nrf_gzll_mode_t nrf_gzll_get_mode(void);
















 
_Bool nrf_gzll_set_base_address_0(uint32_t base_address);






 
uint32_t nrf_gzll_get_base_address_0(void);











 
_Bool nrf_gzll_set_base_address_1(uint32_t base_address);






 
uint32_t nrf_gzll_get_base_address_1(void);













 
_Bool nrf_gzll_set_address_prefix_byte(uint32_t pipe, uint8_t address_prefix_byte);













 
_Bool nrf_gzll_get_address_prefix_byte(uint32_t pipe, uint8_t* out_address_prefix_byte);














 
_Bool nrf_gzll_set_rx_pipes_enabled(uint32_t pipes);






 
uint32_t nrf_gzll_get_rx_pipes_enabled(void);


















 
_Bool nrf_gzll_set_timeslot_period(uint32_t period_us);






 
uint32_t nrf_gzll_get_timeslot_period(void);























 
_Bool nrf_gzll_set_device_channel_selection_policy(nrf_gzll_device_channel_selection_policy_t policy);






 
nrf_gzll_device_channel_selection_policy_t nrf_gzll_get_device_channel_selection_policy(void);




















 
_Bool nrf_gzll_set_timeslots_per_channel(uint32_t timeslots);






 
uint32_t nrf_gzll_get_timeslots_per_channel(void);




















 
_Bool nrf_gzll_set_timeslots_per_channel_when_device_out_of_sync(uint32_t timeslots);







 
uint32_t nrf_gzll_get_timeslots_per_channel_when_device_out_of_sync(void);












 
_Bool nrf_gzll_set_sync_lifetime(uint32_t lifetime);






 
uint32_t nrf_gzll_get_sync_lifetime(void);














 
_Bool nrf_gzll_set_max_tx_attempts(uint16_t max_tx_attempts);






 
uint16_t nrf_gzll_get_max_tx_attempts(void); 
















 
_Bool nrf_gzll_set_channel_table(uint8_t* channel_table, uint32_t size);













 
_Bool nrf_gzll_get_channel_table(uint8_t* channel_table, uint32_t* size);






 
uint32_t nrf_gzll_get_channel_table_size(void);









 
_Bool nrf_gzll_set_tx_power(nrf_gzll_tx_power_t tx_power);






 
nrf_gzll_tx_power_t nrf_gzll_get_tx_power(void);









 
_Bool nrf_gzll_set_datarate(nrf_gzll_datarate_t data_rate);






 
nrf_gzll_datarate_t nrf_gzll_get_datarate(void);




















 
_Bool nrf_gzll_set_xosc_ctl(nrf_gzll_xosc_ctl_t xosc_ctl);






 
nrf_gzll_xosc_ctl_t nrf_gzll_get_xosc_ctl(void);







 
void nrf_gzll_set_auto_disable(uint32_t num_ticks);








 
uint32_t nrf_gzll_get_tick_count(void);






 
void nrf_gzll_clear_tick_count(void);

 


 

 
 






 
nrf_gzll_error_code_t nrf_gzll_get_error_code(void);






 
void nrf_gzll_reset_error_code(void);

 

 
#line 35 "..\\main_device_ack_payload.c"
#line 1 "..\\..\\..\\..\\..\\Include\\nrf_gpio.h"



#line 5 "..\\..\\..\\..\\..\\Include\\nrf_gpio.h"
#line 6 "..\\..\\..\\..\\..\\Include\\nrf_gpio.h"












 




 
typedef enum
{
    NRF_GPIO_PORT_DIR_OUTPUT,       
    NRF_GPIO_PORT_DIR_INPUT         
} nrf_gpio_port_dir_t;




 
typedef enum
{
    NRF_GPIO_PIN_DIR_INPUT,   
    NRF_GPIO_PIN_DIR_OUTPUT   
} nrf_gpio_pin_dir_t;




 
typedef enum
{
    NRF_GPIO_PORT_SELECT_PORT0 = 0,           
    NRF_GPIO_PORT_SELECT_PORT1,               
    NRF_GPIO_PORT_SELECT_PORT2,               
    NRF_GPIO_PORT_SELECT_PORT3,               
} nrf_gpio_port_select_t;




 
typedef enum
{
    NRF_GPIO_PIN_NOPULL   = (0x00UL),                 
    NRF_GPIO_PIN_PULLDOWN = (0x01UL),                 
    NRF_GPIO_PIN_PULLUP   = (0x03UL),                   
} nrf_gpio_pin_pull_t;




 
typedef enum
{
    NRF_GPIO_PIN_NOSENSE    = (0x00UL),              
    NRF_GPIO_PIN_SENSE_LOW  = (0x03UL),                   
    NRF_GPIO_PIN_SENSE_HIGH = (0x02UL),                  
} nrf_gpio_pin_sense_t;











 
static __inline void nrf_gpio_range_cfg_output(uint32_t pin_range_start, uint32_t pin_range_end)
{
     
    for (; pin_range_start <= pin_range_end; pin_range_start++)
    {
        ((NRF_GPIO_Type *) 0x50000000UL)->PIN_CNF[pin_range_start] = ((0x00UL) << (16UL))
                                        | ((0x00UL) << (8UL))
                                        | ((0x00UL) << (2UL))
                                        | ((0UL) << (1UL))
                                        | ((1UL) << (0UL));
    }
}













 
static __inline void nrf_gpio_range_cfg_input(uint32_t pin_range_start, uint32_t pin_range_end, nrf_gpio_pin_pull_t pull_config)
{
     
    for (; pin_range_start <= pin_range_end; pin_range_start++)
    {
        ((NRF_GPIO_Type *) 0x50000000UL)->PIN_CNF[pin_range_start] = ((0x00UL) << (16UL))
                                        | ((0x00UL) << (8UL))
                                        | (pull_config << (2UL))
                                        | ((0UL) << (1UL))
                                        | ((0UL) << (0UL));
    }
}








 
static __inline void nrf_gpio_cfg_output(uint32_t pin_number)
{
     
    ((NRF_GPIO_Type *) 0x50000000UL)->PIN_CNF[pin_number] = ((0x00UL) << (16UL))
                                            | ((0x00UL) << (8UL))
                                            | ((0x00UL) << (2UL))
                                            | ((0UL) << (1UL))
                                            | ((1UL) << (0UL));
}










 
static __inline void nrf_gpio_cfg_input(uint32_t pin_number, nrf_gpio_pin_pull_t pull_config)
{
     
    ((NRF_GPIO_Type *) 0x50000000UL)->PIN_CNF[pin_number] = ((0x00UL) << (16UL))
                                        | ((0x00UL) << (8UL))
                                        | (pull_config << (2UL))
                                        | ((0UL) << (1UL))
                                        | ((0UL) << (0UL));
}











 
static __inline void nrf_gpio_cfg_sense_input(uint32_t pin_number, nrf_gpio_pin_pull_t pull_config, nrf_gpio_pin_sense_t sense_config)
{
     
    ((NRF_GPIO_Type *) 0x50000000UL)->PIN_CNF[pin_number] = (sense_config << (16UL))
                                        | ((0x00UL) << (8UL))
                                        | (pull_config << (2UL))
                                        | ((0UL) << (1UL))
                                        | ((0UL) << (0UL));
}








 
static __inline void nrf_gpio_pin_dir_set(uint32_t pin_number, nrf_gpio_pin_dir_t direction)
{
    if(direction == NRF_GPIO_PIN_DIR_INPUT)
    {
        ((NRF_GPIO_Type *) 0x50000000UL)->PIN_CNF[pin_number] =
          ((0x00UL) << (16UL))
        | ((0x00UL) << (8UL))
        | ((0x00UL) << (2UL))
        | ((0UL) << (1UL))
        | ((0UL) << (0UL));
    }
    else
    {
        ((NRF_GPIO_Type *) 0x50000000UL)->DIRSET = (1UL << pin_number);
    }
}









 
static __inline void nrf_gpio_pin_set(uint32_t pin_number)
{
    ((NRF_GPIO_Type *) 0x50000000UL)->OUTSET = (1UL << pin_number);
}









 
static __inline void nrf_gpio_pin_clear(uint32_t pin_number)
{
    ((NRF_GPIO_Type *) 0x50000000UL)->OUTCLR = (1UL << pin_number);
}









 
static __inline void nrf_gpio_pin_toggle(uint32_t pin_number)
{
    ((NRF_GPIO_Type *) 0x50000000UL)->OUT ^= (1UL << pin_number);
}













 
static __inline void nrf_gpio_pin_write(uint32_t pin_number, uint32_t value)
{
    if (value == 0)
    {
        nrf_gpio_pin_clear(pin_number);
    }
    else
    {
        nrf_gpio_pin_set(pin_number);
    }
}














 
static __inline uint32_t nrf_gpio_pin_read(uint32_t pin_number)
{
    return  ((((NRF_GPIO_Type *) 0x50000000UL)->IN >> pin_number) & 1UL);
}














 
static __inline void nrf_gpio_word_byte_write(volatile uint32_t * word_address, uint8_t byte_no, uint8_t value)
{
    *((volatile uint8_t*)(word_address) + byte_no) = value;
}













 
static __inline uint8_t nrf_gpio_word_byte_read(const volatile uint32_t* word_address, uint8_t byte_no)
{
    return (*((const volatile uint8_t*)(word_address) + byte_no));
}







 
static __inline void nrf_gpio_port_dir_set(nrf_gpio_port_select_t port, nrf_gpio_port_dir_t dir)
{
    if (dir == NRF_GPIO_PORT_DIR_OUTPUT)
    {
        nrf_gpio_word_byte_write(&((NRF_GPIO_Type *) 0x50000000UL)->DIRSET, port, 0xFF);
    }
    else
    {
        nrf_gpio_range_cfg_input(port*8, (port+1)*8-1, NRF_GPIO_PIN_NOPULL);
    }
}







 
static __inline uint8_t nrf_gpio_port_read(nrf_gpio_port_select_t port)
{
    return nrf_gpio_word_byte_read(&((NRF_GPIO_Type *) 0x50000000UL)->IN, port);
}









 
static __inline void nrf_gpio_port_write(nrf_gpio_port_select_t port, uint8_t value)
{
    nrf_gpio_word_byte_write(&((NRF_GPIO_Type *) 0x50000000UL)->OUT, port, value);
}











 
static __inline void nrf_gpio_port_set(nrf_gpio_port_select_t port, uint8_t set_mask)
{
    nrf_gpio_word_byte_write(&((NRF_GPIO_Type *) 0x50000000UL)->OUTSET, port, set_mask);
}











 
static __inline void nrf_gpio_port_clear(nrf_gpio_port_select_t port, uint8_t clr_mask)
{
    nrf_gpio_word_byte_write(&((NRF_GPIO_Type *) 0x50000000UL)->OUTCLR, port, clr_mask);
}

 

#line 36 "..\\main_device_ack_payload.c"
#line 1 "..\\..\\..\\..\\..\\Include\\spi_master.h"
 









 




#line 17 "..\\..\\..\\..\\..\\Include\\spi_master.h"
#line 18 "..\\..\\..\\..\\..\\Include\\spi_master.h"














 



 
typedef enum
{
    Freq_125Kbps = 0,         
    Freq_250Kbps,             
    Freq_500Kbps,             
    Freq_1Mbps,               
    Freq_2Mbps,               
    Freq_4Mbps,               
    Freq_8Mbps                
} SPIFrequency_t;



 
typedef enum
{
    SPI0 = 0,                
    SPI1                     
} SPIModuleNumber;



 
typedef enum
{
    
    SPI_MODE0 = 0,           
    SPI_MODE1,               
    
    SPI_MODE2,               
    SPI_MODE3                
} SPIMode;















 
uint32_t* spi_master_init(SPIModuleNumber module_number, SPIMode mode, _Bool lsb_first);
















 
_Bool spi_master_tx_rx(uint32_t *spi_base_address, uint16_t transfer_size, const uint8_t *tx_data, uint8_t *rx_data);



 
 
#line 37 "..\\main_device_ack_payload.c"
#line 1 "..\\..\\..\\..\\..\\Include\\nrf_delay.h"



#line 5 "..\\..\\..\\..\\..\\Include\\nrf_delay.h"

 

static __asm void __inline nrf_delay_us(uint32_t volatile number_of_us)
{
loop
        SUBS    R0, R0, #1
        NOP
        NOP
        NOP
        NOP
        NOP
        NOP
        NOP
        NOP
        NOP
        NOP
        NOP
        NOP
        BNE    loop
        BX     LR
}
#line 71 "..\\..\\..\\..\\..\\Include\\nrf_delay.h"

void nrf_delay_ms(uint32_t volatile number_of_ms);

#line 38 "..\\main_device_ack_payload.c"
#line 1 "..\\..\\..\\..\\..\\Include\\common.h"
 









 




 

#line 19 "..\\..\\..\\..\\..\\Include\\common.h"
#line 20 "..\\..\\..\\..\\..\\Include\\common.h"




 







 




 
#line 39 "..\\main_device_ack_payload.c"
#line 1 "..\\..\\..\\..\\..\\Include\\boards.h"










 



#line 1 "..\\..\\..\\..\\..\\Include\\boards/pca10001.h"










 



#line 16 "..\\..\\..\\..\\..\\Include\\boards/pca10001.h"


















#line 21 "..\\..\\..\\..\\..\\Include\\boards.h"
#line 28 "..\\..\\..\\..\\..\\Include\\boards.h"

#line 40 "..\\main_device_ack_payload.c"
#line 1 "..\\spi_master_config.h"










 





 





 

















 





 





 


#line 41 "..\\main_device_ack_payload.c"
#line 1 "..\\ADS1298.h"

#line 3 "..\\ADS1298.h"
#line 4 "..\\ADS1298.h"


#line 22 "..\\ADS1298.h"








void ads_init(uint32_t *spi_base_address);

void ads_write_register(uint32_t *spi_base_address,uint8_t reg, uint8_t val);

void ads_read_register(uint32_t *spi_base_address,uint8_t reg,uint8_t* rval);

void ads_opcode(uint32_t *spi_base_address,uint8_t opcode);

#line 42 "..\\main_device_ack_payload.c"

#line 1 "..\\..\\..\\..\\..\\Include\\app_common\\app_gpiote.h"










 
























 




#line 42 "..\\..\\..\\..\\..\\Include\\app_common\\app_gpiote.h"
#line 43 "..\\..\\..\\..\\..\\Include\\app_common\\app_gpiote.h"
#line 44 "..\\..\\..\\..\\..\\Include\\app_common\\app_gpiote.h"
#line 1 "..\\..\\..\\..\\..\\Include\\app_common\\app_error.h"










 
 







 




#line 26 "..\\..\\..\\..\\..\\Include\\app_common\\app_error.h"
#line 27 "..\\..\\..\\..\\..\\Include\\app_common\\app_error.h"
#line 1 "..\\..\\..\\..\\..\\Include\\app_common\\nrf_error.h"







 
 




 

 




 




 

#line 46 "..\\..\\..\\..\\..\\Include\\app_common\\nrf_error.h"





 
#line 28 "..\\..\\..\\..\\..\\Include\\app_common\\app_error.h"






 
void app_error_handler(uint32_t error_code, uint32_t line_num, const uint8_t * p_file_name);




 









     
#line 60 "..\\..\\..\\..\\..\\Include\\app_common\\app_error.h"
    



     
#line 74 "..\\..\\..\\..\\..\\Include\\app_common\\app_error.h"



 
#line 45 "..\\..\\..\\..\\..\\Include\\app_common\\app_gpiote.h"
#line 1 "..\\..\\..\\..\\..\\Include\\app_common\\app_util.h"










 








 




#line 26 "..\\..\\..\\..\\..\\Include\\app_common\\app_util.h"
#line 27 "..\\..\\..\\..\\..\\Include\\app_common\\app_util.h"
#line 28 "..\\..\\..\\..\\..\\Include\\app_common\\app_util.h"
#line 29 "..\\..\\..\\..\\..\\Include\\app_common\\app_util.h"

 
typedef enum
{
    APP_IRQ_PRIORITY_HIGH = 1,
    APP_IRQ_PRIORITY_LOW  = 3
} app_irq_priority_t;

enum
{
    UNIT_0_625_MS = 625,                                 
    UNIT_1_25_MS  = 1250,                                
    UNIT_10_MS    = 10000                                
};



 

 
















 



 
typedef uint8_t uint16_le_t[2];

 
typedef uint8_t uint32_le_t[4];

 
typedef struct
{
    uint16_t  size;                  
    uint8_t * p_data;                
} uint8_array_t;






 
#line 104 "..\\..\\..\\..\\..\\Include\\app_common\\app_util.h"
    





 
#line 123 "..\\..\\..\\..\\..\\Include\\app_common\\app_util.h"
    






 








 





 












 











 
static __inline uint8_t uint16_encode(uint16_t value, uint8_t * p_encoded_data)
{
    p_encoded_data[0] = (uint8_t) ((value & 0x00FF) >> 0);
    p_encoded_data[1] = (uint8_t) ((value & 0xFF00) >> 8);
    return sizeof(uint16_t);
}
    






 
static __inline uint8_t uint32_encode(uint32_t value, uint8_t * p_encoded_data)
{
    p_encoded_data[0] = (uint8_t) ((value & 0x000000FF) >> 0);
    p_encoded_data[1] = (uint8_t) ((value & 0x0000FF00) >> 8);
    p_encoded_data[2] = (uint8_t) ((value & 0x00FF0000) >> 16);
    p_encoded_data[3] = (uint8_t) ((value & 0xFF000000) >> 24);
    return sizeof(uint32_t);
}






 
static __inline uint16_t uint16_decode(const uint8_t * p_encoded_data)
{
        return ( (((uint16_t)((uint8_t *)p_encoded_data)[0])) | 
                 (((uint16_t)((uint8_t *)p_encoded_data)[1]) << 8 ));
}






 
static __inline uint32_t uint32_decode(const uint8_t * p_encoded_data)
{
    return ( (((uint32_t)((uint8_t *)p_encoded_data)[0]) << 0)  |
             (((uint32_t)((uint8_t *)p_encoded_data)[1]) << 8)  |
             (((uint32_t)((uint8_t *)p_encoded_data)[2]) << 16) |
             (((uint32_t)((uint8_t *)p_encoded_data)[3]) << 24 ));
}

    






 
static __inline uint8_t current_int_priority_get(void)
{
    uint32_t isr_vector_num = (((SCB_Type *) ((0xE000E000UL) + 0x0D00UL) )->ICSR & (0x1FFUL << 0));
    if (isr_vector_num > 0)
    {
        int32_t irq_type = ((int32_t)isr_vector_num - 16);
        return (NVIC_GetPriority((IRQn_Type)irq_type) & 0xFF);
    }
    else
    {
        return 4;
    }
}




















 
static __inline uint8_t battery_level_in_percent(const uint16_t mvolts)
{
    uint8_t battery_level;

    if (mvolts >= 3000)
    {
        battery_level = 100;
    }
    else if (mvolts > 2900)
    {
        battery_level = 100 - ((3000 - mvolts) * 58) / 100;
    }
    else if (mvolts > 2740)
    {
        battery_level = 42 - ((2900 - mvolts) * 24) / 160;
    }
    else if (mvolts > 2440)
    {
        battery_level = 18 - ((2740 - mvolts) * 12) / 300;
    }
    else if (mvolts > 2100)
    {
        battery_level = 6 - ((2440 - mvolts) * 6) / 340;
    }
    else
    {
        battery_level = 0;
    }

    return battery_level;
}






 
static __inline _Bool is_word_aligned(void * p)
{
    return (((uint32_t)p & 0x00000003) == 0);
}



 
#line 46 "..\\..\\..\\..\\..\\Include\\app_common\\app_gpiote.h"









 


typedef uint8_t app_gpiote_user_id_t;

 
typedef void (*app_gpiote_event_handler_t)(uint32_t event_pins_low_to_high,
                                           uint32_t event_pins_high_to_low);










 
   
#line 82 "..\\..\\..\\..\\..\\Include\\app_common\\app_gpiote.h"















 
uint32_t app_gpiote_init(uint8_t max_users, void * p_buffer);

















 
uint32_t app_gpiote_user_register(app_gpiote_user_id_t *     p_user_id,
                                  uint32_t                   pins_low_to_high_mask,
                                  uint32_t                   pins_high_to_low_mask,
                                  app_gpiote_event_handler_t event_handler);









 
uint32_t app_gpiote_user_enable(app_gpiote_user_id_t user_id);









 
uint32_t app_gpiote_user_disable(app_gpiote_user_id_t user_id);












 
uint32_t app_gpiote_pins_state_get(app_gpiote_user_id_t user_id, uint32_t * p_pins);



 
#line 44 "..\\main_device_ack_payload.c"
#line 45 "..\\main_device_ack_payload.c"
#line 1 "..\\..\\..\\..\\..\\Include\\app_common\\app_fifo.h"










 








 




#line 26 "..\\..\\..\\..\\..\\Include\\app_common\\app_fifo.h"
#line 1 "e:\\Keil\\ARM\\ARMCC\\bin\\..\\include\\stdlib.h"
 
 
 




 
 



 













  


 








#line 46 "e:\\Keil\\ARM\\ARMCC\\bin\\..\\include\\stdlib.h"


  
  typedef unsigned int size_t;










    



    typedef unsigned short wchar_t;  
#line 75 "e:\\Keil\\ARM\\ARMCC\\bin\\..\\include\\stdlib.h"

typedef struct div_t { int quot, rem; } div_t;
    
typedef struct ldiv_t { long int quot, rem; } ldiv_t;
    

typedef struct lldiv_t { __int64 quot, rem; } lldiv_t;
    


#line 96 "e:\\Keil\\ARM\\ARMCC\\bin\\..\\include\\stdlib.h"
   



 

   




 
#line 115 "e:\\Keil\\ARM\\ARMCC\\bin\\..\\include\\stdlib.h"
   


 
extern __declspec(__nothrow) int __aeabi_MB_CUR_MAX(void);

   




 

   




 




extern __declspec(__nothrow) double atof(const char *  ) __attribute__((__nonnull__(1)));
   



 
extern __declspec(__nothrow) int atoi(const char *  ) __attribute__((__nonnull__(1)));
   



 
extern __declspec(__nothrow) long int atol(const char *  ) __attribute__((__nonnull__(1)));
   



 

extern __declspec(__nothrow) __int64 atoll(const char *  ) __attribute__((__nonnull__(1)));
   



 


extern __declspec(__nothrow) double strtod(const char * __restrict  , char ** __restrict  ) __attribute__((__nonnull__(1)));
   

















 

extern __declspec(__nothrow) float strtof(const char * __restrict  , char ** __restrict  ) __attribute__((__nonnull__(1)));
extern __declspec(__nothrow) long double strtold(const char * __restrict  , char ** __restrict  ) __attribute__((__nonnull__(1)));
   

 

extern __declspec(__nothrow) long int strtol(const char * __restrict  ,
                        char ** __restrict  , int  ) __attribute__((__nonnull__(1)));
   



























 
extern __declspec(__nothrow) unsigned long int strtoul(const char * __restrict  ,
                                       char ** __restrict  , int  ) __attribute__((__nonnull__(1)));
   


























 

 
extern __declspec(__nothrow) __int64 strtoll(const char * __restrict  ,
                               char ** __restrict  , int  ) __attribute__((__nonnull__(1)));
   




 
extern __declspec(__nothrow) unsigned __int64 strtoull(const char * __restrict  ,
                                         char ** __restrict  , int  ) __attribute__((__nonnull__(1)));
   



 

extern __declspec(__nothrow) int rand(void);
   







 
extern __declspec(__nothrow) void srand(unsigned int  );
   






 

struct _rand_state { int __x[57]; };
extern __declspec(__nothrow) int _rand_r(struct _rand_state *);
extern __declspec(__nothrow) void _srand_r(struct _rand_state *, unsigned int);
struct _ANSI_rand_state { int __x[1]; };
extern __declspec(__nothrow) int _ANSI_rand_r(struct _ANSI_rand_state *);
extern __declspec(__nothrow) void _ANSI_srand_r(struct _ANSI_rand_state *, unsigned int);
   


 

extern __declspec(__nothrow) void *calloc(size_t  , size_t  );
   



 
extern __declspec(__nothrow) void free(void *  );
   





 
extern __declspec(__nothrow) void *malloc(size_t  );
   



 
extern __declspec(__nothrow) void *realloc(void *  , size_t  );
   













 

extern __declspec(__nothrow) int posix_memalign(void **  , size_t  , size_t  );
   









 

typedef int (*__heapprt)(void *, char const *, ...);
extern __declspec(__nothrow) void __heapstats(int (*  )(void *  ,
                                           char const *  , ...),
                        void *  ) __attribute__((__nonnull__(1)));
   










 
extern __declspec(__nothrow) int __heapvalid(int (*  )(void *  ,
                                           char const *  , ...),
                       void *  , int  ) __attribute__((__nonnull__(1)));
   














 
extern __declspec(__nothrow) __declspec(__noreturn) void abort(void);
   







 

extern __declspec(__nothrow) int atexit(void (*  )(void)) __attribute__((__nonnull__(1)));
   




 
#line 415 "e:\\Keil\\ARM\\ARMCC\\bin\\..\\include\\stdlib.h"


extern __declspec(__nothrow) __declspec(__noreturn) void exit(int  );
   












 

extern __declspec(__nothrow) __declspec(__noreturn) void _Exit(int  );
   







      

extern __declspec(__nothrow) char *getenv(const char *  ) __attribute__((__nonnull__(1)));
   









 

extern __declspec(__nothrow) int  system(const char *  );
   









 

extern  void *bsearch(const void *  , const void *  ,
              size_t  , size_t  ,
              int (*  )(const void *, const void *)) __attribute__((__nonnull__(1,2,5)));
   












 
#line 503 "e:\\Keil\\ARM\\ARMCC\\bin\\..\\include\\stdlib.h"


extern  void qsort(void *  , size_t  , size_t  ,
           int (*  )(const void *, const void *)) __attribute__((__nonnull__(1,4)));
   









 

#line 532 "e:\\Keil\\ARM\\ARMCC\\bin\\..\\include\\stdlib.h"

extern __declspec(__nothrow) __pure int abs(int  );
   



 

extern __declspec(__nothrow) __pure div_t div(int  , int  );
   









 
extern __declspec(__nothrow) __pure long int labs(long int  );
   



 




extern __declspec(__nothrow) __pure ldiv_t ldiv(long int  , long int  );
   











 







extern __declspec(__nothrow) __pure __int64 llabs(__int64  );
   



 




extern __declspec(__nothrow) __pure lldiv_t lldiv(__int64  , __int64  );
   











 
#line 613 "e:\\Keil\\ARM\\ARMCC\\bin\\..\\include\\stdlib.h"



 
typedef struct __sdiv32by16 { int quot, rem; } __sdiv32by16;
typedef struct __udiv32by16 { unsigned int quot, rem; } __udiv32by16;
    
typedef struct __sdiv64by32 { int rem, quot; } __sdiv64by32;

__value_in_regs extern __declspec(__nothrow) __pure __sdiv32by16 __rt_sdiv32by16(
     int  ,
     short int  );
   

 
__value_in_regs extern __declspec(__nothrow) __pure __udiv32by16 __rt_udiv32by16(
     unsigned int  ,
     unsigned short  );
   

 
__value_in_regs extern __declspec(__nothrow) __pure __sdiv64by32 __rt_sdiv64by32(
     int  , unsigned int  ,
     int  );
   

 



 
extern __declspec(__nothrow) unsigned int __fp_status(unsigned int  , unsigned int  );
   







 























 
extern __declspec(__nothrow) int mblen(const char *  , size_t  );
   












 
extern __declspec(__nothrow) int mbtowc(wchar_t * __restrict  ,
                   const char * __restrict  , size_t  );
   















 
extern __declspec(__nothrow) int wctomb(char *  , wchar_t  );
   













 





 
extern __declspec(__nothrow) size_t mbstowcs(wchar_t * __restrict  ,
                      const char * __restrict  , size_t  ) __attribute__((__nonnull__(2)));
   














 
extern __declspec(__nothrow) size_t wcstombs(char * __restrict  ,
                      const wchar_t * __restrict  , size_t  ) __attribute__((__nonnull__(2)));
   














 

extern __declspec(__nothrow) void __use_realtime_heap(void);
extern __declspec(__nothrow) void __use_realtime_division(void);
extern __declspec(__nothrow) void __use_two_region_memory(void);
extern __declspec(__nothrow) void __use_no_heap(void);
extern __declspec(__nothrow) void __use_no_heap_region(void);

extern __declspec(__nothrow) char const *__C_library_version_string(void);
extern __declspec(__nothrow) int __C_library_version_number(void);











#line 867 "e:\\Keil\\ARM\\ARMCC\\bin\\..\\include\\stdlib.h"


 

#line 27 "..\\..\\..\\..\\..\\Include\\app_common\\app_fifo.h"
#line 28 "..\\..\\..\\..\\..\\Include\\app_common\\app_fifo.h"




 
typedef struct
{
    uint8_t *          p_buf;            
    uint16_t           buf_size_mask;    
    volatile uint32_t  read_pos;         
    volatile uint32_t  write_pos;        
} app_fifo_t;










 
uint32_t app_fifo_init(app_fifo_t * p_fifo, uint8_t * p_buf, uint16_t buf_size);








 
uint32_t app_fifo_put(app_fifo_t * p_fifo, uint8_t byte);








 
uint32_t app_fifo_get(app_fifo_t * p_fifo, uint8_t * p_byte);






 
uint32_t app_fifo_flush(app_fifo_t * p_fifo);



 
#line 46 "..\\main_device_ack_payload.c"
 
 
 



















static uint8_t data_payload[25];                
static uint8_t ack_payload[32]; 


static volatile _Bool init_ok, enable_ok, push_ok, pop_ok, tx_success,tx_done;  


static uint8_t tx_data[27];  
static uint8_t rx_data[27];  
static uint8_t testspi[5];
 


static app_gpiote_user_id_t   spi_drdyb;


static void ads_gpiote_event_handler(uint32_t event_pins_low_to_high, uint32_t event_pins_high_to_low);

uint32_t  low_to_high_bitmask = 0x00000000; 
uint32_t  high_to_low_bitmask = 0x00000020; 
uint32_t retval;
uint32_t *spi_base_address;


app_fifo_t ads_fifo;

uint8_t ads_buffer[512];

static uint32_t err_code;
static uint8_t  t_counter;
static uint8_t led_toggle;
static uint32_t local_pipe;
 




 
 


int main()
{
    uint8_t debug_led_output;
	
		
    do { static uint32_t app_gpiote_buf[((((((1) * 20)) - 1) / (sizeof(uint32_t))) + 1)]; uint32_t ERR_CODE = app_gpiote_init((1), app_gpiote_buf); } while (0);
	
	  retval = app_gpiote_user_register(&spi_drdyb,
                                  low_to_high_bitmask,
                                  high_to_low_bitmask,
                                  ads_gpiote_event_handler);

		if (retval != ((0x0) + 0))
    {
    
	 
    }
	
    
    
	  nrf_gpio_range_cfg_input(16, 17, NRF_GPIO_PIN_PULLUP);
		nrf_gpio_cfg_input(5, NRF_GPIO_PIN_NOPULL);
	  nrf_gpio_word_byte_write(&((NRF_GPIO_Type *) 0x50000000UL)->DIRSET, NRF_GPIO_PORT_SELECT_PORT2, 0x0C);
		nrf_gpio_word_byte_write(&((NRF_GPIO_Type *) 0x50000000UL)->DIRSET, NRF_GPIO_PORT_SELECT_PORT1, 0x10);
	  
	   nrf_gpio_word_byte_write(&((NRF_GPIO_Type *) 0x50000000UL)->DIRSET, NRF_GPIO_PORT_SELECT_PORT3,0x01 );
    
	
		for(int i = 0;i<27;i++)
		{
		tx_data[i] = 0;
		}


    
    init_ok = nrf_gzll_init(NRF_GZLL_MODE_DEVICE);
    
    
    init_ok &= nrf_gzll_set_max_tx_attempts(100);

    
    data_payload[0] = nrf_gpio_port_read(NRF_GPIO_PORT_SELECT_PORT2);  
    push_ok = nrf_gzll_add_packet_to_tx_fifo(0, data_payload, 25);
    
    
    enable_ok = nrf_gzll_enable();         
	
	
	  spi_base_address = spi_master_init(SPI0, SPI_MODE1, 0);
		
		err_code = app_fifo_init(&ads_fifo, ads_buffer, (uint16_t)sizeof(ads_buffer));
		
		ads_init(spi_base_address);
    
    retval = app_gpiote_user_enable(spi_drdyb);
		if (retval != ((0x0) + 0))
    {
    
			nrf_delay_us(1000000); 
	    while(1);
    }
		
		spi_master_tx_rx(spi_base_address, 27, (const uint8_t *)tx_data, rx_data);
		
    while(1)
    {
        
        debug_led_output = ((uint8_t)tx_success << 4) | ((uint8_t)pop_ok << 3) | ((uint8_t)push_ok << 2) | ((uint8_t)enable_ok << 1) | (uint8_t)init_ok;                
        
			
			  
			
			
			if(tx_success&tx_done)
			{
				
									
								
	
				for(int i = 0;i<25;i++)
					{
						err_code = app_fifo_get(&ads_fifo, data_payload+i);
					}
				if(err_code != ((0x0) + 5))
				{
					push_ok = nrf_gzll_add_packet_to_tx_fifo(local_pipe, data_payload, 25);
					tx_done = 0;
					if(led_toggle == 0)
					{
					
					nrf_gpio_word_byte_write(&((NRF_GPIO_Type *) 0x50000000UL)->OUTSET, NRF_GPIO_PORT_SELECT_PORT1, 0x10);
					led_toggle = 1;
					}
					else
					{
						
						nrf_gpio_word_byte_write(&((NRF_GPIO_Type *) 0x50000000UL)->OUTCLR, NRF_GPIO_PORT_SELECT_PORT1, 0x10);
						led_toggle = 0;
					}
				}
				
				
			}
			
        
        
			  if(debug_led_output != 0x17)
        {
            nrf_gpio_port_write(NRF_GPIO_PORT_SELECT_PORT2,0x0F); 
            nrf_delay_us(1000000); 
            nrf_gpio_port_write(NRF_GPIO_PORT_SELECT_PORT2, debug_led_output&0x0F);
            nrf_delay_us(1000000); 
            nrf_gpio_port_write(NRF_GPIO_PORT_SELECT_PORT2,0x00 + (uint32_t)nrf_gzll_get_error_code()); 
            nrf_delay_us(1000000); 
					
        }

        
        
    }
}


 
 
 



void  nrf_gzll_device_tx_success(uint32_t pipe, nrf_gzll_device_tx_info_t tx_info)
{
    uint32_t ack_payload_length = 32;    
    tx_success = 1;
		tx_done = 1;
    local_pipe = pipe;
   
    
        
      
       
        
         
        
    
	
		
			

}





 
void nrf_gzll_device_tx_failed(uint32_t pipe, nrf_gzll_device_tx_info_t tx_info)
{
    tx_success = 0;

    
    
    
		push_ok = nrf_gzll_add_packet_to_tx_fifo(pipe, data_payload, 25);
	  
}




void nrf_gzll_host_rx_data_ready(uint32_t pipe, nrf_gzll_host_rx_info_t rx_info)
{}
void nrf_gzll_disabled()
{}

 
 

	void ads_gpiote_event_handler(uint32_t event_pins_low_to_high, uint32_t event_pins_high_to_low)
	{
		
		if (event_pins_high_to_low & 0x00000020)
    {
         
         
			spi_master_tx_rx(spi_base_address, 27, (const uint8_t *)tx_data, rx_data);
			for ( int i = 0;i<24;i++)
			{
				err_code = app_fifo_put(&ads_fifo, *(rx_data+3+i));
			}
			err_code = app_fifo_put(&ads_fifo,t_counter++);
			
			
    }
	}
	


